ideas = {
#################################################
### Head of Government
#################################################
	Head_of_Government = {
	
	# Yuan Shikai
		ROC_HoG_Yuan_Shikai = {
			picture = Generic_Portrait
			allowed = { tag = ROC }
			visible = {
				date > 1885.1.1
				date < 1934.1.1
				PA_Minister_Allowed = yes
				NOT = { has_country_flag = Yuan_Shikai_unvisible }
			}
			cost = 150
			removal_cost = 10
			traits = { ideology_A HoG_Yuan_Shikai_1 }
		}
	# Hongxian
		ROC_HoG_Hongxian = {
			picture = Generic_Portrait
			allowed = { tag = ROC }
			visible = {
				date > 1885.1.1
				date < 1934.1.1
				PA_Minister_Allowed = yes
				NOT = { has_country_flag = Hongxian_unvisible }
				has_country_flag = Empire_of_China_Declared
			}
			cost = 150
			removal_cost = 10
			traits = { ideology_F HoG_Yuan_Shikai_1 }
		}
	# Yin Rugeng
		ROC_HoG_Yin_Rugeng = {
			picture = Generic_Portrait
			allowed = { tag = ROC }
			visible = {
				date > 1913.1.1
				date < 1947.1.1
				FA_Minister_Allowed = yes
				NOT = { has_country_flag = Yin_Rugeng_unvisible }
				has_country_flag = Empire_of_China_Declared
			}
			cost = 150
			removal_cost = 10
			traits = { ideology_F HoG_Local_Tyrant }
		}
	# Wang Shizhen
		ROC_HoG_Wang_Shizhen = {
			picture = Generic_Portrait
			allowed = { tag = ROC }
			visible = {
				date > 1894.1.1
				date < 1930.1.1
				PA_Minister_Allowed = yes
				NOT = { has_country_flag = Wang_Shizhen_unvisible }
			}
			cost = 150
			removal_cost = 10
			traits = { ideology_A HoG_Old_General }
		}
	# Xiong Xiling
		ROC_HoG_Xiong_Xiling = {
			picture = Generic_Portrait
			allowed = { tag = ROC }
			visible = {
				date > 1897.1.1
				date < 1915.1.1
				PA_Minister_Allowed = yes
				NOT = { has_country_flag = Xiong_Xiling_unvisible }
			}
			cost = 150
			removal_cost = 10
			traits = { ideology_A HoG_Corporate_Suit }
		}
	# Duan Qirui
		ROC_HoG_Duan_Qirui = {
			picture = Generic_Portrait
			allowed = { tag = ROC }
			visible = {
				date > 1898.1.1
				date < 1926.1.1
				PA_Minister_Allowed = yes
				NOT = { has_country_flag = Duan_Qirui_unvisible }
			}
			cost = 150
			removal_cost = 10
			traits = { ideology_A HoG_Flamboyant_Tough_Guy }
		}
	# Sun Baoqi
		ROC_HoG_Sun_Baoqi = {
			picture = Generic_Portrait
			allowed = { tag = ROC }
			visible = {
				date > 1900.1.1
				date < 1928.1.1
				PA_Minister_Allowed = yes
				NOT = { has_country_flag = Sun_Baoqi_unvisible }
			}
			cost = 150
			removal_cost = 10
			traits = { ideology_A HoG_Silent_Workhorse }
		}
	# Wang Daxie
		ROC_HoG_Wang_Daxie = {
			picture = Generic_Portrait
			allowed = { tag = ROC }
			visible = {
				date > 1901.1.1
				date < 1930.1.1
				PA_Minister_Allowed = yes
				NOT = { has_country_flag = Wang_Daxie_unvisible }
			}
			cost = 150
			removal_cost = 10
			traits = { ideology_A HoG_Silent_Workhorse }
		}
	# Jin Yunpeng
		ROC_HoG_Jin_Yunpeng = {
			picture = Generic_Portrait
			allowed = { tag = ROC }
			visible = {
				date > 1902.1.1
				date < 1921.1.1
				PA_Minister_Allowed = yes
				NOT = { has_country_flag = Jin_Yunpeng_unvisible }
			}
			cost = 150
			removal_cost = 10
			traits = { ideology_A HoG_Old_General }
		}
	# Liang Shiyi
		ROC_HoG_Liang_Shiyi = {
			picture = Generic_Portrait
			allowed = { tag = ROC }
			visible = {
				date > 1902.1.1
				date < 1931.1.1
				PA_Minister_Allowed = yes
				NOT = { has_country_flag = Liang_Shiyi_unvisible }
			}
			cost = 150
			removal_cost = 10
			traits = { ideology_A HoG_Naive_Optimist }
		}
	# Qian Nengxun
		ROC_HoG_Qian_Nengxun = {
			picture = Generic_Portrait
			allowed = { tag = ROC }
			visible = {
				date > 1903.1.1
				date < 1920.1.1
				PA_Minister_Allowed = yes
				NOT = { has_country_flag = Qian_Nengxun_unvisible }
			}
			cost = 150
			removal_cost = 10
			traits = { ideology_A HoG_Corporate_Suit }
		}
	# Zhang Shaozeng
		ROC_HoG_Zhang_Shaozeng = {
			picture = Generic_Portrait
			allowed = { tag = ROC }
			visible = {
				date > 1903.1.1
				date < 1929.1.1
				PA_Minister_Allowed = yes
				NOT = { has_country_flag = Zhang_Shaozeng_unvisible }
			}
			cost = 150
			removal_cost = 10
			traits = { ideology_A HoG_Old_General }
		}
	# Xu Shichang
		ROC_HoG_Xu_Shichang = {
			picture = Generic_Portrait
			allowed = { tag = ROC }
			visible = {
				date > 1905.1.1
				date < 1922.1.1
				PA_Minister_Allowed = yes
				NOT = { has_country_flag = Xu_Shichang_unvisible }
			}
			cost = 150
			removal_cost = 10
			traits = { ideology_A HoG_Political_Protege }
		}
	# Wang Chonghui
		ROC_HoG_Wang_Chonghui = {
			picture = Generic_Portrait
			allowed = { tag = ROC }
			visible = {
				date > 1905.1.1
				date < 1949.1.1
				PA_Minister_Allowed = yes
				NOT = { has_country_flag = Wang_Chonghui_unvisible }
			}
			cost = 150
			removal_cost = 10
			traits = { ideology_A HoG_Naive_Optimist }
		}
	# Yan Huiqing
		ROC_HoG_Yan_Huiqing = {
			picture = Generic_Portrait
			allowed = { tag = ROC }
			visible = {
				date > 1907.1.1
				date < 1949.1.1
				PA_Minister_Allowed = yes
				NOT = { has_country_flag = Yan_Huiqing_unvisible }
			}
			cost = 150
			removal_cost = 10
			traits = { ideology_A HoG_Happy_Amateur }
		}
	# Xu Shuzheng
		ROC_HoG_Xu_Shuzheng = {
			picture = Generic_Portrait
			allowed = { tag = ROC }
			visible = {
				date > 1910.1.1
				date < 1926.1.1
				PA_Minister_Allowed = yes
				NOT = { has_country_flag = Xu_Shuzheng_unvisible }
			}
			cost = 150
			removal_cost = 10
			traits = { ideology_A HoG_Political_Protege }
		}
	# Gao Lingwei
		ROC_HoG_Gao_Lingwei = {
			picture = Generic_Portrait
			allowed = { tag = ROC }
			visible = {
				date > 1910.1.1
				date < 1926.1.1
				PA_Minister_Allowed = yes
				NOT = { has_country_flag = Gao_Lingwei_unvisible }
			}
			cost = 150
			removal_cost = 10
			traits = { ideology_A HoG_Political_Protege }
		}
	# Wu Tingfang
		ROC_HoG_Wu_Tingfang = {
			picture = Generic_Portrait
			allowed = { tag = ROC }
			visible = {
				date > 1896.1.1
				date < 1922.1.1
				SC_Minister_Allowed = yes
				NOT = { has_country_flag = Wu_Tingfang_unvisible }
			}
			cost = 150
			removal_cost = 10
			traits = { ideology_D HoG_Naive_Optimist }
		}
	# Gu Weijun
		ROC_HoG_Gu_Weijun = {
			picture = Generic_Portrait
			allowed = { tag = ROC }
			visible = {
				date > 1912.1.1
				date < 1957.1.1
				SC_Minister_Allowed = yes
				NOT = { has_country_flag = Gu_Weijun_unvisible }
			}
			cost = 150
			removal_cost = 10
			traits = { ideology_D HoG_Naive_Optimist }
		}
	# Li Zhang Da
		ROC_HoG_Li_Zhang_Da = {
			picture = Generic_Portrait
			allowed = { tag = ROC }
			visible = {
				date > 1948.1.1
				date < 1964.1.1
				SD_Minister_Allowed = yes
				NOT = { has_country_flag = Li_Zhang_Da_unvisible }
			}
			cost = 150
			removal_cost = 10
			traits = { ideology_D HoG_Old_General }
		}
	# Lin Bojiu
		ROC_HoG_Lin_Bojiu = {
			picture = Generic_Portrait
			allowed = { tag = ROC }
			visible = {
				date > 1936.1.1
				date < 1964.1.1
				LWR_Minister_Allowed = yes
				NOT = { has_country_flag = Lin_Bojiu_unvisible }
			}
			cost = 150
			removal_cost = 10
			traits = { ideology_S HoG_Flamboyant_Tough_Guy }
		}
}
#################################################
### Foreign Minister
#################################################
	Foreign_Minister = {
	# Lu Zhengxiang
		ROC_FM_Lu_Zhengxiang = {
			picture = Generic_Portrait
			allowed = { tag = ROC }
			visible = {
				date > 1893.1.1
				date < 1922.1.1
				PA_Minister_Allowed = yes
				NOT = { has_country_flag = Lu_Zhengxiang_unvisible }
			}
			cost = 150
			removal_cost = 10
			traits = { ideology_A FM_Biased_Intellectual }
		}
	# Doihara Kenji
		ROC_FM_Doihara_Kenji = {
			picture = Generic_Portrait
			allowed = { tag = ROC }
			visible = {
				date > 1927.1.1
				date < 1948.1.1
				FA_Minister_Allowed = yes
				NOT = { has_country_flag = Doihara_Kenji_unvisible }
				has_country_flag = Empire_of_China_Declared
			}
			cost = 150
			removal_cost = 10
			traits = { ideology_F FM_Ideological_Crusader }
		}
	# Shi Zhaoji
		ROC_FM_Shi_Zhaoji = {
			picture = Generic_Portrait
			allowed = { tag = ROC }
			visible = {
				date > 1893.1.1
				date < 1937.1.1
				PA_Minister_Allowed = yes
				NOT = { has_country_flag = Shi_Zhaoji_unvisible }
			}
			cost = 150
			removal_cost = 10
			traits = { ideology_A FM_Great_Compromiser }
		}
	# Sun Baoqi
		ROC_FM_Sun_Baoqi = {
			picture = Generic_Portrait
			allowed = { tag = ROC }
			visible = {
				date > 1900.1.1
				date < 1928.1.1
				PA_Minister_Allowed = yes
				NOT = { has_country_flag = Sun_Baoqi_unvisible }
			}
			cost = 150
			removal_cost = 10
			traits = { ideology_A FM_Great_Compromiser }
		}
	# Yan Huiqing
		ROC_FM_Yan_Huiqing = {
			picture = Generic_Portrait
			allowed = { tag = ROC }
			visible = {
				date > 1907.1.1
				date < 1949.1.1
				PA_Minister_Allowed = yes
				NOT = { has_country_flag = Yan_Huiqing_unvisible }
			}
			cost = 150
			removal_cost = 10
			traits = { ideology_A FM_Apologetic_Clerk }
		}
	# Wu Tingfang
		ROC_FM_Wu_Tingfang = {
			picture = Generic_Portrait
			allowed = { tag = ROC }
			visible = {
				date > 1896.1.1
				date < 1922.1.1
				SC_Minister_Allowed = yes
				NOT = { has_country_flag = Wu_Tingfang_unvisible }
			}
			cost = 150
			removal_cost = 10
			traits = { ideology_D FM_Biased_Intellectual }
		}
	# Tang Shaoyi
		ROC_FM_Tang_Shaoyi = {
			picture = Generic_Portrait
			allowed = { tag = ROC }
			visible = {
				date > 1912.1.1
				date < 1924.1.1
				SC_Minister_Allowed = yes
				NOT = { has_country_flag = Tang_Shaoyi_unvisible }
			}
			cost = 150
			removal_cost = 10
			traits = { ideology_D FM_Ideological_Crusader }
		}
	# Gu Weijun
		ROC_FM_Gu_Weijun = {
			picture = Generic_Portrait
			allowed = { tag = ROC }
			visible = {
				date > 1912.1.1
				date < 1957.1.1
				SC_Minister_Allowed = yes
				NOT = { has_country_flag = Gu_Weijun_unvisible }
			}
			cost = 150
			removal_cost = 10
			traits = { ideology_D FM_Great_Compromiser }
		}
	# Siyuan
		ROC_FM_Siyuan = {
			picture = Generic_Portrait
			allowed = { tag = ROC }
			visible = {
				date > 1949.1.1
				date < 1964.1.1
				SD_Minister_Allowed = yes
				NOT = { has_country_flag = Siyuan_unvisible }
			}
			cost = 150
			removal_cost = 10
			traits = { ideology_D FM_Apologetic_Clerk }
		}
}
#################################################
### Minister of Security
#################################################
	Minister_of_Security = {
	# Doihara Kenji
		ROC_MoS_Doihara_Kenji = {
			picture = Generic_Portrait
			allowed = { tag = ROC }
			visible = {
				date > 1927.1.1
				date < 1948.1.1
				FA_Minister_Allowed = yes
				NOT = { has_country_flag = Doihara_Kenji_unvisible }
				has_country_flag = Empire_of_China_Declared
			}
			cost = 150
			removal_cost = 10
			traits = { ideology_F MoS_Prince_Of_Terror }
		}
	# Tianwen Lie
		ROC_MoS_Tianwen_Lie = {
			picture = Generic_Portrait
			allowed = { tag = ROC }
			visible = {
				date > 1885.1.1
				date < 1922.1.1
				PA_Minister_Allowed = yes
				NOT = { has_country_flag = Tianwen_Lie_unvisible }
			}
			cost = 150
			removal_cost = 10
			traits = { ideology_A MoS_Silent_Lawyer }
		}
	# Xu Shiying
		ROC_MoS_Xu_Shiying = {
			picture = Generic_Portrait
			allowed = { tag = ROC }
			visible = {
				date > 1902.1.1
				date < 1926.1.1
				PA_Minister_Allowed = yes
				NOT = { has_country_flag = Xu_Shiying_unvisible }
			}
			cost = 150
			removal_cost = 10
			traits = { ideology_A MoS_Silent_Lawyer }
		}
	# Qian Nengxun
		ROC_MoS_Qian_Nengxun = {
			picture = Generic_Portrait
			allowed = { tag = ROC }
			visible = {
				date > 1903.1.1
				date < 1920.1.1
				PA_Minister_Allowed = yes
				NOT = { has_country_flag = Qian_Nengxun_unvisible }
			}
			cost = 150
			removal_cost = 10
			traits = { ideology_A MoS_Crime_Fighter }
		}
	# Wang Yitang
		ROC_MoS_Wang_Yitang = {
			picture = Generic_Portrait
			allowed = { tag = ROC }
			visible = {
				date > 1907.1.1
				date < 1931.1.1
				PA_Minister_Allowed = yes
				NOT = { has_country_flag = Wang_Yitang_unvisible }
			}
			cost = 150
			removal_cost = 10
			traits = { ideology_A MoS_Crime_Fighter }
		}
	# Zhu Qiqian
		ROC_MoS_Zhu_Qiqian = {
			picture = Generic_Portrait
			allowed = { tag = ROC }
			visible = {
				date > 1909.1.1
				date < 1933.1.1
				PA_Minister_Allowed = yes
				NOT = { has_country_flag = Zhu_Qiqian_unvisible }
			}
			cost = 150
			removal_cost = 10
			traits = { ideology_A MoS_Prince_Of_Terror }
		}
	# Gao Lingwei
		ROC_MoS_Gao_Lingwei = {
			picture = Generic_Portrait
			allowed = { tag = ROC }
			visible = {
				date > 1910.1.1
				date < 1940.1.1
				PA_Minister_Allowed = yes
				NOT = { has_country_flag = Gao_Lingwei_unvisible }
			}
			cost = 150
			removal_cost = 10
			traits = { ideology_A MoS_Compassionate_Gentleman }
		}
	# Zhu Shen
		ROC_MoS_Zhu_Shen = {
			picture = Generic_Portrait
			allowed = { tag = ROC }
			visible = {
				date > 1912.1.1
				date < 1944.1.1
				PA_Minister_Allowed = yes
				NOT = { has_country_flag = Zhu_Shen_unvisible }
			}
			cost = 150
			removal_cost = 10
			traits = { ideology_A MoS_Crime_Fighter }
		}
	# Zhang Zongxiang
		ROC_MoS_Zhang_Zongxiang = {
			picture = Generic_Portrait
			allowed = { tag = ROC }
			visible = {
				date > 1914.1.1
				date < 1933.1.1
				PA_Minister_Allowed = yes
				NOT = { has_country_flag = Zhang_Zongxiang_unvisible }
			}
			cost = 150
			removal_cost = 10
			traits = { ideology_A MoS_Silent_Lawyer }
		}
	# Zhang Yaozeng
		ROC_MoS_Zhang_Yaozeng = {
			picture = Generic_Portrait
			allowed = { tag = ROC }
			visible = {
				date > 1914.1.1
				date < 1938.1.1
				PA_Minister_Allowed = yes
				NOT = { has_country_flag = Zhang_Yaozeng_unvisible }
			}
			cost = 150
			removal_cost = 10
			traits = { ideology_A MoS_Silent_Lawyer }
		}
	# Fan Yuanlian
		ROC_MoS_Fan_Yuanlian = {
			picture = Generic_Portrait
			allowed = { tag = ROC }
			visible = {
				date > 1917.1.1
				date < 1927.1.1
				PA_Minister_Allowed = yes
				NOT = { has_country_flag = Fan_Yuanlian_unvisible }
			}
			cost = 150
			removal_cost = 10
			traits = { ideology_A MoS_Compassionate_Gentleman }
		}
	# Tang Hualong
		ROC_MoS_Tang_Hualong = {
			picture = Generic_Portrait
			allowed = { tag = ROC }
			visible = {
				date > 1917.1.1
				date < 1918.1.1
				PA_Minister_Allowed = yes
				NOT = { has_country_flag = Tang_Hualong_unvisible }
			}
			cost = 150
			removal_cost = 10
			traits = { ideology_A MoS_Prince_Of_Terror }
		}
	# Deng Xihou
		ROC_MoS_Deng_Xihou = {
			picture = Generic_Portrait
			allowed = { tag = ROC }
			visible = {
				date > 1917.1.1
				date < 1926.1.1
				PA_Minister_Allowed = yes
				NOT = { has_country_flag = Deng_Xihou_unvisible }
			}
			cost = 150
			removal_cost = 10
			traits = { ideology_A MoS_Prince_Of_Terror }
		}
	# Zhang Zitan
		ROC_MoS_Zhang_Zitan = {
			picture = Generic_Portrait
			allowed = { tag = ROC }
			visible = {
				date > 1919.1.1
				date < 1920.1.1
				PA_Minister_Allowed = yes
				NOT = { has_country_flag = Zhang_Zitan_unvisible }
			}
			cost = 150
			removal_cost = 10
			traits = { ideology_A MoS_Man_Of_The_People }
		}
	# Tan Yankai
		ROC_MoS_Tan_Yankai = {
			picture = Generic_Portrait
			allowed = { tag = ROC }
			visible = {
				date > 1907.1.1
				date < 1931.1.1
				SC_Minister_Allowed = yes
				NOT = { has_country_flag = Tan_Yankai_unvisible }
			}
			cost = 150
			removal_cost = 10
			traits = { ideology_D MoS_Man_Of_The_People }
		}
	# Liang Qichao
		ROC_MoS_Liang_Qichao = {
			picture = Generic_Portrait
			allowed = { tag = ROC }
			visible = {
				date > 1895.1.1
				date < 1918.1.1
				ML_Minister_Allowed = yes
				NOT = { has_country_flag = Liang_Qichao_unvisible }
			}
			cost = 150
			removal_cost = 10
			traits = { ideology_D MoS_Man_Of_The_People }
		}
	# Siyuan
		ROC_MoS_Siyuan = {
			picture = Generic_Portrait
			allowed = { tag = ROC }
			visible = {
				date > 1928.1.1
				date < 1964.1.1
				SD_Minister_Allowed = yes
				NOT = { has_country_flag = Siyuan_unvisible }
			}
			cost = 150
			removal_cost = 10
			traits = { ideology_D MoS_Silent_Lawyer }
		}
	# Gan Yongbo
		ROC_MoS_Gan_Yongbo = {
			picture = Generic_Portrait
			allowed = { tag = ROC }
			visible = {
				date > 1949.1.1
				date < 1964.1.1
				SD_Minister_Allowed = yes
				NOT = { has_country_flag = Gan_Yongbo_unvisible }
			}
			cost = 150
			removal_cost = 10
			traits = { ideology_D MoS_Compassionate_Gentleman }
		}
}
#################################################
### Armaments Minister
#################################################
	Armaments_Minister = {
	# Doihara Kenji
		ROC_AM_Doihara_Kenji = {
			picture = Generic_Portrait
			allowed = { tag = ROC }
			visible = {
				date > 1927.1.1
				date < 1948.1.1
				FA_Minister_Allowed = yes
				NOT = { has_country_flag = Doihara_Kenji_unvisible }
				has_country_flag = Empire_of_China_Declared
			}
			cost = 150
			removal_cost = 10
			traits = { ideology_F AM_Infantry_Proponent }
		}
	# Liang Shiyi
		ROC_AM_Liang_Shiyi = {
			picture = Generic_Portrait
			allowed = { tag = ROC }
			visible = {
				date > 1902.1.1
				date < 1931.1.1
				PA_Minister_Allowed = yes
				NOT = { has_country_flag = Liang_Shiyi_unvisible }
				
			}
			cost = 150
			removal_cost = 10
			traits = { ideology_A AM_Resource_Industrialist }
		}
	# Li Shengduo
		ROC_AM_Li_Shengduo = {
			picture = Generic_Portrait
			allowed = { tag = ROC }
			visible = {
				date > 1891.1.1
				date < 1934.1.1
				PA_Minister_Allowed = yes
				NOT = { has_country_flag = Li_Shengduo_unvisible }
			}
			cost = 150
			removal_cost = 10
			traits = { ideology_A AM_Resource_Industrialist }
		}
	# Liu Enyuan
		ROC_AM_Liu_Enyuan = {
			picture = Generic_Portrait
			allowed = { tag = ROC }
			visible = {
				date > 1895.1.1
				date < 1924.1.1
				PA_Minister_Allowed = yes
				NOT = { has_country_flag = Liu_Enyuan_unvisible }
			}
			cost = 150
			removal_cost = 10
			traits = { ideology_A AM_Military_Entrepreneur }
		}
	# Wu Yulin
		ROC_AM_Wu_Yulin = {
			picture = Generic_Portrait
			allowed = { tag = ROC }
			visible = {
				date > 1895.1.1
				date < 1925.1.1
				PA_Minister_Allowed = yes
				NOT = { has_country_flag = Wu_Yulin_unvisible }
			}
			cost = 150
			removal_cost = 10
			traits = { ideology_A AM_Battle_Fleet_Proponent }
		}
	# Zhou Ziqi
		ROC_AM_Zhou_Ziqi = {
			picture = Generic_Portrait
			allowed = { tag = ROC }
			visible = {
				date > 1896.1.1
				date < 1923.1.1
				PA_Minister_Allowed = yes
				NOT = { has_country_flag = Zhou_Ziqi_unvisible }
			}
			cost = 150
			removal_cost = 10
			traits = { ideology_A AM_Infantry_Proponent }
		}
	# Xiong Xiling
		ROC_AM_Xiong_Xiling = {
			picture = Generic_Portrait
			allowed = { tag = ROC }
			visible = {
				date > 1897.1.1
				date < 1915.1.1
				PA_Minister_Allowed = yes
				NOT = { has_country_flag = Xiong_Xiling_unvisible }
			}
			cost = 150
			removal_cost = 10
			traits = { ideology_A AM_Resource_Industrialist }
		}
	# Li Jingxi
		ROC_AM_Li_Jingxi = {
			picture = Generic_Portrait
			allowed = { tag = ROC }
			visible = {
				date > 1901.1.1
				date < 1917.1.1
				PA_Minister_Allowed = yes
				NOT = { has_country_flag = Li_Jingxi_unvisible }
			}
			cost = 150
			removal_cost = 10
			traits = { ideology_A AM_Military_Entrepreneur }
		}
	# Zhang Hu
		ROC_AM_Zhang_Hu = {
			picture = Generic_Portrait
			allowed = { tag = ROC }
			visible = {
				date > 1904.1.1
				date < 1938.1.1
				PA_Minister_Allowed = yes
				NOT = { has_country_flag = Zhang_Hu_unvisible }
			}
			cost = 150
			removal_cost = 10
			traits = { ideology_A AM_Resource_Industrialist }
		}
	# Zhang Guogan
		ROC_AM_Zhang_Guogan = {
			picture = Generic_Portrait
			allowed = { tag = ROC }
			visible = {
				date > 1906.1.1
				date < 1951.1.1
				PA_Minister_Allowed = yes
				NOT = { has_country_flag = Zhang_Guogan_unvisible }
			}
			cost = 150
			removal_cost = 10
			traits = { ideology_A AM_Laissez-faire_Capitalist }
		}
	# Wang Kemin
		ROC_AM_Wang_Kemin = {
			picture = Generic_Portrait
			allowed = { tag = ROC }
			visible = {
				date > 1907.1.1
				date < 1945.1.1
				PA_Minister_Allowed = yes
				NOT = { has_country_flag = Wang_Kemin_unvisible }
			}
			cost = 150
			removal_cost = 10
			traits = { ideology_A AM_Corrupt_Kleptocrat }
		}
	# Gao Lingwei
		ROC_AM_Gao_Lingwei = {
			picture = Generic_Portrait
			allowed = { tag = ROC }
			visible = {
				date > 1910.1.1
				date < 1926.1.1
				PA_Minister_Allowed = yes
				NOT = { has_country_flag = Gao_Lingwei_unvisible }
			}
			cost = 150
			removal_cost = 10
			traits = { ideology_A AM_Resource_Industrialist }
		}
	# Chen Jintao
		ROC_AM_Chen_Jintao = {
			picture = Generic_Portrait
			allowed = { tag = ROC }
			visible = {
				date > 1912.1.1
				date < 1935.1.1
				PA_Minister_Allowed = yes
				NOT = { has_country_flag = Chen_Jintao_unvisible }
			}
			cost = 150
			removal_cost = 10
			traits = { ideology_A AM_Corrupt_Kleptocrat }
		}
	# Gong Xinzhan
		ROC_AM_Gong_Xinzhan = {
			picture = Generic_Portrait
			allowed = { tag = ROC }
			visible = {
				date > 1912.1.1
				date < 1926.1.1
				PA_Minister_Allowed = yes
				NOT = { has_country_flag = Gong_Xinzhan_unvisible }
			}
			cost = 150
			removal_cost = 10
			traits = { ideology_A AM_Laissez-faire_Capitalist }
		}
	# Gao Enhong
		ROC_AM_Gao_Enhong = {
			picture = Generic_Portrait
			allowed = { tag = ROC }
			visible = {
				date > 1912.1.1
				date < 1925.1.1
				PA_Minister_Allowed = yes
				NOT = { has_country_flag = Gao_Enhong_unvisible }
			}
			cost = 150
			removal_cost = 10
			traits = { ideology_A AM_Resource_Industrialist }
		}
	# Cao Rulin
		ROC_AM_Cao_Rulin = {
			picture = Generic_Portrait
			allowed = { tag = ROC }
			visible = {
				date > 1913.1.1
				date < 1920.1.1
				PA_Minister_Allowed = yes
				NOT = { has_country_flag = Cao_Rulin_unvisible }
			}
			cost = 150
			removal_cost = 10
			traits = { ideology_A AM_Administrative_Genius }
		}
	# Zhou Xeuxi
		ROC_AM_Zhou_Xeuxi = {
			picture = Generic_Portrait
			allowed = { tag = ROC }
			visible = {
				date > 1916.1.1
				date < 1933.1.1
				PA_Minister_Allowed = yes
				NOT = { has_country_flag = Zhou_Xeuxi_unvisible }
			}
			cost = 150
			removal_cost = 10
			traits = { ideology_A AM_Corrupt_Kleptocrat }
		}
	# Jin Bangping
		ROC_AM_Jin_Bangping = {
			picture = Generic_Portrait
			allowed = { tag = ROC }
			visible = {
				date > 1916.1.1
				date < 1933.1.1
				PA_Minister_Allowed = yes
				NOT = { has_country_flag = Jin_Bangping_unvisible }
			}
			cost = 150
			removal_cost = 10
			traits = { ideology_A AM_Resource_Industrialist }
		}
	# Gu Zhongxiu
		ROC_AM_Gu_Zhongxiu = {
			picture = Generic_Portrait
			allowed = { tag = ROC }
			visible = {
				date > 1917.1.1
				date < 1949.1.1
				PA_Minister_Allowed = yes
				NOT = { has_country_flag = Gu_Zhongxiu_unvisible }
			}
			cost = 150
			removal_cost = 10
			traits = { ideology_A AM_Resource_Industrialist }
		}
	# Zhang Yinghua
		ROC_AM_Zhang_Yinghua = {
			picture = Generic_Portrait
			allowed = { tag = ROC }
			visible = {
				date > 1918.1.1
				date < 1926.1.1
				PA_Minister_Allowed = yes
				NOT = { has_country_flag = Zhang_Yinghua_unvisible }
			}
			cost = 150
			removal_cost = 10
			traits = { ideology_A AM_Administrative_Genius }
		}
	# Li Sihao
		ROC_AM_Li_Sihao = {
			picture = Generic_Portrait
			allowed = { tag = ROC }
			visible = {
				date > 1919.1.1
				date < 1949.1.1
				PA_Minister_Allowed = yes
				NOT = { has_country_flag = Li_Sihao_unvisible }
			}
			cost = 150
			removal_cost = 10
			traits = { ideology_A AM_Resource_Industrialist }
		}
	# Zhang Jian
		ROC_AM_Zhang_Jian = {
			picture = Generic_Portrait
			allowed = { tag = ROC }
			visible = {
				date > 1909.1.1
				date < 1926.1.1
				SC_Minister_Allowed = yes
				NOT = { has_country_flag = Zhang_Jian_unvisible }
			}
			cost = 150
			removal_cost = 10
			traits = { ideology_D AM_Reformer }
		}
	# Liang Qichao
		ROC_AM_Liang_Qichao = {
			picture = Generic_Portrait
			allowed = { tag = ROC }
			visible = {
				date > 1895.1.1
				date < 1918.1.1
				ML_Minister_Allowed = yes
				NOT = { has_country_flag = Liang_Qichao_unvisible }
			}
			cost = 150
			removal_cost = 10
			traits = { ideology_D AM_Laissez-faire_Capitalist }
		}
	# Siyuan
		ROC_AM_Siyuan = {
			picture = Generic_Portrait
			allowed = { tag = ROC }
			visible = {
				date > 1928.1.1
				date < 1964.1.1
				SD_Minister_Allowed = yes
				NOT = { has_country_flag = Siyuan_unvisible }
			}
			cost = 150
			removal_cost = 10
			traits = { ideology_D AM_Theoretical_Scientist }
		}
	# Gan Yongbo
		ROC_AM_Gan_Yongbo = {
			picture = Generic_Portrait
			allowed = { tag = ROC }
			visible = {
				date > 1949.1.1
				date < 1964.1.1
				SD_Minister_Allowed = yes
				NOT = { has_country_flag = Gan_Yongbo_unvisible }
			}
			cost = 150
			removal_cost = 10
			traits = { ideology_D AM_Laissez-faire_Capitalist }
		}
}
#################################################
### Head of Intelligence
#################################################
	Head_of_Intelligence = {
	# Zhou Ziqi
		ROC_HoI_Zhou_Ziqi = {
			picture = Generic_Portrait
			allowed = { tag = ROC }
			visible = {
				date > 1896.1.1
				date < 1923.1.1
				PA_Minister_Allowed = yes
				NOT = { has_country_flag = Zhou_Ziqi_unvisible }
			}
			cost = 150
			removal_cost = 10
			traits = { ideology_A HoI_Technical_Specialist }
		}
	# Zhang Zongxiang
		ROC_HoI_Zhang_Zongxiang = {
			picture = Generic_Portrait
			allowed = { tag = ROC }
			visible = {
				date > 1914.1.1
				date < 1933.1.1
				PA_Minister_Allowed = yes
				NOT = { has_country_flag = Zhang_Zongxiang_unvisible }
			}
			cost = 150
			removal_cost = 10
			traits = { ideology_A HoI_Political_Specialist }
		}
	# Duan Qirui
		ROC_HoI_Duan_Qirui = {
			picture = Generic_Portrait
			allowed = { tag = ROC }
			visible = {
				date > 1898.1.1
				date < 1926.1.1
				PA_Minister_Allowed = yes
				NOT = { has_country_flag = Duan_Qirui_unvisible }
			}
			cost = 150
			removal_cost = 10
			traits = { ideology_A HoI_Political_Specialist }
		}
	# Meigong Bin
		ROC_HoI_Meigong_Bin = {
			picture = Generic_Portrait
			allowed = { tag = ROC }
			visible = {
				date > 1935.1.1
				date < 1964.1.1
				SD_Minister_Allowed = yes
				NOT = { has_country_flag = Meigong_Bin_unvisible }
			}
			cost = 150
			removal_cost = 10
			traits = { ideology_D HoI_Political_Specialist }
		}
}
#################################################
### Chief of Staff
#################################################
	Chief_of_Staff = {
	# Wang Shizhen
		ROC_CoStaff_Wang_Shizhen = {
			picture = Generic_Portrait
			allowed = { tag = ROC }
			visible = {
				date > 1894.1.1
				date < 1930.1.1
				PA_Minister_Allowed = yes
				NOT = { has_country_flag = Wang_Shizhen_unvisible }
			}
			cost = 150
			removal_cost = 10
			traits = { ideology_A CoStaff_School_Of_Defence }
		}
	# Duan Qirui
		ROC_CoStaff_Duan_Qirui = {
			picture = Generic_Portrait
			allowed = { tag = ROC }
			visible = {
				date > 1898.1.1
				date < 1926.1.1
				PA_Minister_Allowed = yes
				NOT = { has_country_flag = Duan_Qirui_unvisible }
			}
			cost = 150
			removal_cost = 10
			traits = { ideology_A CoStaff_School_Of_Mass_Combat }
		}
	# Song Zheyuan
		ROC_CoStaff_Song_Zheyuan = {
			picture = Generic_Portrait
			allowed = { tag = ROC }
			visible = {
				date > 1917.1.1
				date < 1940.1.1
				PA_Minister_Allowed = yes
				NOT = { has_country_flag = Song_Zheyuan_unvisible }
			}
			cost = 150
			removal_cost = 10
			traits = { ideology_A CoStaff_School_Of_Psychology }
		}
	# Jin Yunpeng
		ROC_CoStaff_Jin_Yunpeng = {
			picture = Generic_Portrait
			allowed = { tag = ROC }
			visible = {
				date > 1902.1.1
				date < 1921.1.1
				PA_Minister_Allowed = yes
				NOT = { has_country_flag = Jin_Yunpeng_unvisible }
			}
			cost = 150
			removal_cost = 10
			traits = { ideology_A CoStaff_School_Of_Mass_Combat }
		}
	# Wu Peifu
		ROC_CoStaff_Wu_Peifu = {
			picture = Generic_Portrait
			allowed = { tag = ROC }
			visible = {
				date > 1902.1.1
				date < 1927.1.1
				PA_Minister_Allowed = yes
				NOT = { has_country_flag = Wu_Peifu_unvisible }
			}
			cost = 150
			removal_cost = 10
			traits = { ideology_A CoStaff_School_Of_Manoeuvre }
		}
	# Zhang Shaozeng
		ROC_CoStaff_Zhang_Shaozeng = {
			picture = Generic_Portrait
			allowed = { tag = ROC }
			visible = {
				date > 1903.1.1
				date < 1929.1.1
				PA_Minister_Allowed = yes
				NOT = { has_country_flag = Zhang_Shaozeng_unvisible }
			}
			cost = 150
			removal_cost = 10
			traits = { ideology_A CoStaff_School_Of_Psychology }
		}
	# Wang Tan
		ROC_CoStaff_Wang_Tan = {
			picture = Generic_Portrait
			allowed = { tag = ROC }
			visible = {
				date > 1911.1.1
				date < 1924.1.1
				PA_Minister_Allowed = yes
				NOT = { has_country_flag = Wang_Tan_unvisible }
			}
			cost = 150
			removal_cost = 10
			traits = { ideology_A CoStaff_School_Of_Mass_Combat }
		}
	# Duan Zhigui
		ROC_CoStaff_Duan_Zhigui = {
			picture = Generic_Portrait
			allowed = { tag = ROC }
			visible = {
				date > 1912.1.1
				date < 1920.1.1
				PA_Minister_Allowed = yes
				NOT = { has_country_flag = Duan_Zhigui_unvisible }
			}
			cost = 150
			removal_cost = 10
			traits = { ideology_A CoStaff_School_Of_Manoeuvre }
		}
	# Lu Jin
		ROC_CoStaff_Lu_Jin = {
			picture = Generic_Portrait
			allowed = { tag = ROC }
			visible = {
				date > 1912.1.1
				date < 1925.1.1
				PA_Minister_Allowed = yes
				NOT = { has_country_flag = Lu_Jin_unvisible }
			}
			cost = 150
			removal_cost = 10
			traits = { ideology_A CoStaff_School_Of_Defence }
		}
	# Bao Guiqing
		ROC_CoStaff_Bao_Guiqing = {
			picture = Generic_Portrait
			allowed = { tag = ROC }
			visible = {
				date > 1913.1.1
				date < 1929.1.1
				PA_Minister_Allowed = yes
				NOT = { has_country_flag = Bao_Guiqing_unvisible }
			}
			cost = 150
			removal_cost = 10
			traits = { ideology_A CoStaff_School_Of_Psychology }
		}
	# Zhang Shiyu
		ROC_CoStaff_Zhang_Shiyu = {
			picture = Generic_Portrait
			allowed = { tag = ROC }
			visible = {
				date > 1917.1.1
				date < 1918.1.1
				PA_Minister_Allowed = yes
				NOT = { has_country_flag = Zhang_Shiyu_unvisible }
			}
			cost = 150
			removal_cost = 10
			traits = { ideology_A CoStaff_School_Of_Psychology }
		}
	# Teng Yun
		ROC_CoStaff_Teng_Yun = {
			picture = Generic_Portrait
			allowed = { tag = ROC }
			visible = {
				date > 1945.1.1
				date < 1964.1.1
				SD_Minister_Allowed = yes
				NOT = { has_country_flag = Teng_Yun_unvisible }
			}
			cost = 150
			removal_cost = 10
			traits = { ideology_D CoStaff_School_Of_Fire_Support }
		}
	# Cheng Qian
		ROC_CoStaff_Cheng_Qian = {
			picture = Generic_Portrait
			allowed = { tag = ROC }
			visible = {
				date > 1949.1.1
				date < 1964.1.1
				SD_Minister_Allowed = yes
				NOT = { has_country_flag = Cheng_Qian_unvisible }
			}
			cost = 150
			removal_cost = 10
			traits = { ideology_D CoStaff_School_Of_Defence }
		}
}
#################################################
### Chief of Army
#################################################
	Chief_of_Army = {
	# Wang Shizhen
		ROC_CoArmy_Wang_Shizhen = {
			picture = Generic_Portrait
			allowed = { tag = ROC }
			visible = {
				date > 1894.1.1
				date < 1930.1.1
				PA_Minister_Allowed = yes
				NOT = { has_country_flag = Wang_Shizhen_unvisible }
			}
			cost = 150
			removal_cost = 10
			traits = { ideology_A CoArmy_Static_Defence_Doctrine }
		}
	# Duan Qirui
		ROC_CoArmy_Duan_Qirui = {
			picture = Generic_Portrait
			allowed = { tag = ROC }
			visible = {
				date > 1898.1.1
				date < 1926.1.1
				PA_Minister_Allowed = yes
				NOT = { has_country_flag = Duan_Qirui_unvisible }
			}
			cost = 150
			removal_cost = 10
			traits = { ideology_A CoArmy_Decisive_Battle_Doctrine }
		}
	# Song Zheyuan
		ROC_CoArmy_Song_Zheyuan = {
			picture = Generic_Portrait
			allowed = { tag = ROC }
			visible = {
				date > 1917.1.1
				date < 1940.1.1
				PA_Minister_Allowed = yes
				NOT = { has_country_flag = Song_Zheyuan_unvisible }
			}
			cost = 150
			removal_cost = 10
			traits = { ideology_A CoArmy_Decisive_Battle_Doctrine }
		}
	# Sun Chuanfang
		ROC_CoArmy_Sun_Chuanfang = {
			picture = Generic_Portrait
			allowed = { tag = ROC }
			visible = {
				date > 1901.1.1
				date < 1931.1.1
				PA_Minister_Allowed = yes
				NOT = { has_country_flag = Sun_Chuanfang_unvisible }
			}
			cost = 150
			removal_cost = 10
			traits = { ideology_A CoArmy_Decisive_Battle_Doctrine }
		}
	# Jin Yunpeng
		ROC_CoArmy_Jin_Yunpeng = {
			picture = Generic_Portrait
			allowed = { tag = ROC }
			visible = {
				date > 1902.1.1
				date < 1921.1.1
				PA_Minister_Allowed = yes
				NOT = { has_country_flag = Jin_Yunpeng_unvisible }
			}
			cost = 150
			removal_cost = 10
			traits = { ideology_A CoArmy_Decisive_Battle_Doctrine }
		}
	# Wu Peifu
		ROC_CoArmy_Wu_Peifu = {
			picture = Generic_Portrait
			allowed = { tag = ROC }
			visible = {
				date > 1902.1.1
				date < 1927.1.1
				PA_Minister_Allowed = yes
				NOT = { has_country_flag = Wu_Peifu_unvisible }
			}
			cost = 150
			removal_cost = 10
			traits = { ideology_A CoStaff_School_Of_Defence }
		}
	# Zhang Shaozeng
		ROC_CoArmy_Zhang_Shaozeng = {
			picture = Generic_Portrait
			allowed = { tag = ROC }
			visible = {
				date > 1903.1.1
				date < 1929.1.1
				PA_Minister_Allowed = yes
				NOT = { has_country_flag = Zhang_Shaozeng_unvisible }
			}
			cost = 150
			removal_cost = 10
			traits = { ideology_A CoArmy_Decisive_Battle_Doctrine }
		}
	# Wang Tan
		ROC_CoArmy_Wang_Tan = {
			picture = Generic_Portrait
			allowed = { tag = ROC }
			visible = {
				date > 1911.1.1
				date < 1924.1.1
				PA_Minister_Allowed = yes
				NOT = { has_country_flag = Wang_Tan_unvisible }
			}
			cost = 150
			removal_cost = 10
			traits = { ideology_A CoArmy_Guns_And_Butter_Doctrine }
		}
	# Duan Zhigui
		ROC_CoArmy_Duan_Zhigui = {
			picture = Generic_Portrait
			allowed = { tag = ROC }
			visible = {
				date > 1912.1.1
				date < 1920.1.1
				PA_Minister_Allowed = yes
				NOT = { has_country_flag = Duan_Zhigui_unvisible }
			}
			cost = 150
			removal_cost = 10
			traits = { ideology_A CoArmy_Decisive_Battle_Doctrine }
		}
	# Lu Jin
		ROC_CoArmy_Lu_Jin = {
			picture = Generic_Portrait
			allowed = { tag = ROC }
			visible = {
				date > 1912.1.1
				date < 1925.1.1
				PA_Minister_Allowed = yes
				NOT = { has_country_flag = Lu_Jin_unvisible }
			}
			cost = 150
			removal_cost = 10
			traits = { ideology_A CoArmy_Static_Defence_Doctrine }
		}
	# Bao Guiqing
		ROC_CoArmy_Bao_Guiqing = {
			picture = Generic_Portrait
			allowed = { tag = ROC }
			visible = {
				date > 1913.1.1
				date < 1929.1.1
				PA_Minister_Allowed = yes
				NOT = { has_country_flag = Bao_Guiqing_unvisible }
			}
			cost = 150
			removal_cost = 10
			traits = { ideology_A CoArmy_Static_Defence_Doctrine }
		}
	# Zhang Shiyu
		ROC_CoArmy_Zhang_Shiyu = {
			picture = Generic_Portrait
			allowed = { tag = ROC }
			visible = {
				date > 1917.1.1
				date < 1918.1.1
				PA_Minister_Allowed = yes
				NOT = { has_country_flag = Zhang_Shiyu_unvisible }
			}
			cost = 150
			removal_cost = 10
			traits = { ideology_A CoArmy_Guns_And_Butter_Doctrine }
		}
	# Wei Lihuang
		ROC_CoArmy_Wei_Lihuang = {
			picture = Generic_Portrait
			allowed = { tag = ROC }
			visible = {
				date > 1939.1.1
				date < 1964.1.1
				SD_Minister_Allowed = yes
				NOT = { has_country_flag = Wei_Lihuang_unvisible }
			}
			cost = 150
			removal_cost = 10
			traits = { ideology_D CoArmy_Guns_And_Butter_Doctrine }
		}
	# Fu Zuoyi
		ROC_CoArmy_Fu_Zuoyi = {
			picture = Generic_Portrait
			allowed = { tag = ROC }
			visible = {
				date > 1946.1.1
				date < 1964.1.1
				SD_Minister_Allowed = yes
				NOT = { has_country_flag = Fu_Zuoyi_unvisible }
			}
			cost = 150
			removal_cost = 10
			traits = { ideology_D CoArmy_Guns_And_Butter_Doctrine }
		}
	# Teng Yun
		ROC_CoArmy_Teng_Yun = {
			picture = Generic_Portrait
			allowed = { tag = ROC }
			visible = {
				date > 1949.1.1
				date < 1964.1.1
				SD_Minister_Allowed = yes
				NOT = { has_country_flag = Teng_Yun_unvisible }
			}
			cost = 150
			removal_cost = 10
			traits = { ideology_D CoArmy_Decisive_Battle_Doctrine }
		}
	# Cheng Qian
		ROC_CoArmy_Cheng_Qian = {
			picture = Generic_Portrait
			allowed = { tag = ROC }
			visible = {
				date > 1949.1.1
				date < 1964.1.1
				SD_Minister_Allowed = yes
				NOT = { has_country_flag = Cheng_Qian_unvisible }
			}
			cost = 150
			removal_cost = 10
			traits = { ideology_D CoArmy_Guns_And_Butter_Doctrine }
		}
}
#################################################
### Chief of Navy
#################################################
	Chief_of_Navy = {
	# Sa Zhenbing
		ROC_CoNavy_Sa_Zhenbing = {
			picture = Generic_Portrait
			allowed = { tag = ROC }
			visible = {
				date > 1881.1.1
				date < 1934.1.1
				PA_Minister_Allowed = yes
				NOT = { has_country_flag = Sa_Zhenbing_unvisible }
			}
			cost = 150
			removal_cost = 10
			traits = { ideology_A CoNavy_Indirect_Approach_Doctrine }
		}
	# Song Zheyuan
		ROC_CoNavy_Song_Zheyuan = {
			picture = Generic_Portrait
			allowed = { tag = ROC }
			visible = {
				date > 1917.1.1
				date < 1940.1.1
				PA_Minister_Allowed = yes
				NOT = { has_country_flag = Song_Zheyuan_unvisible }
			}
			cost = 150
			removal_cost = 10
			traits = { ideology_A CoNavy_Decisive_Naval_Battle_Doctrine }
		}
	# Li Dingxin
		ROC_CoNavy_Li_Dingxin = {
			picture = Generic_Portrait
			allowed = { tag = ROC }
			visible = {
				date > 1886.1.1
				date < 1930.1.1
				PA_Minister_Allowed = yes
				NOT = { has_country_flag = Li_Dingxin_unvisible }
			}
			cost = 150
			removal_cost = 10
			traits = { ideology_A CoNavy_Decisive_Naval_Battle_Doctrine }
		}
	# Liu Guangxiong
		ROC_CoNavy_Liu_Guangxiong = {
			picture = Generic_Portrait
			allowed = { tag = ROC }
			visible = {
				date > 1894.1.1
				date < 1927.1.1
				PA_Minister_Allowed = yes
				NOT = { has_country_flag = Liu_Guangxiong_unvisible }
			}
			cost = 150
			removal_cost = 10
			traits = { ideology_A CoNavy_Open_Seas_Doctrine }
		}
	# Wu Yulin
		ROC_CoNavy_Wu_Yulin = {
			picture = Generic_Portrait
			allowed = { tag = ROC }
			visible = {
				date > 1895.1.1
				date < 1925.1.1
				PA_Minister_Allowed = yes
				NOT = { has_country_flag = Wu_Yulin_unvisible }
			}
			cost = 150
			removal_cost = 10
			traits = { ideology_A CoNavy_Open_Seas_Doctrine }
		}
}
#################################################
### Chief of Airforce
#################################################
	Chief_of_Airforce = {
	# Duan Qirui
		ROC_CoAir_Duan_Qirui = {
			picture = Generic_Portrait
			allowed = { tag = ROC }
			visible = {
				date > 1898.1.1
				date < 1926.1.1
				PA_Minister_Allowed = yes
				NOT = { has_country_flag = Duan_Qirui_unvisible }
			}
			cost = 150
			removal_cost = 10
			traits = { ideology_A CoAir_Army_Aviation_Doctrine }
		}
	# Wu Peifu
		ROC_CoAir_Wu_Peifu = {
			picture = Generic_Portrait
			allowed = { tag = ROC }
			visible = {
				date > 1902.1.1
				date < 1927.1.1
				PA_Minister_Allowed = yes
				NOT = { has_country_flag = Wu_Peifu_unvisible }
			}
			cost = 150
			removal_cost = 10
			traits = { ideology_A CoAir_Army_Aviation_Doctrine }
		}
	# Wang Shizhen
		ROC_CoAir_Wang_Shizhen = {
			picture = Generic_Portrait
			allowed = { tag = ROC }
			visible = {
				date > 1894.1.1
				date < 1930.1.1
				PA_Minister_Allowed = yes
				NOT = { has_country_flag = Wang_Shizhen_unvisible }
			}
			cost = 150
			removal_cost = 10
			traits = { ideology_A CoAir_Army_Aviation_Doctrine }
		}
	# Song Zheyuan
		ROC_CoAir_Song_Zheyuan = {
			picture = Generic_Portrait
			allowed = { tag = ROC }
			visible = {
				date > 1917.1.1
				date < 1940.1.1
				PA_Minister_Allowed = yes
				NOT = { has_country_flag = Song_Zheyuan_unvisible }
			}
			cost = 150
			removal_cost = 10
			traits = { ideology_A CoAir_Army_Aviation_Doctrine }
		}
	# Wang Chengbin
		ROC_CoAir_Wang_Chengbin = {
			picture = Generic_Portrait
			allowed = { tag = ROC }
			visible = {
				date > 1913.1.1
				date < 1925.1.1
				PA_Minister_Allowed = yes
				NOT = { has_country_flag = Wang_Chengbin_unvisible }
			}
			cost = 150
			removal_cost = 10
			traits = { ideology_A CoAir_Carpet_Bombing_Doctrine }
		}
	}
}
