state={
	id=1039
	name="STATE_1039"
	
	history={
		owner = SWI
		victory_points = {
			3612 2
		}
		buildings = {
			infrastructure = 4

		}
		add_core_of = SWI

	}
	
	provinces={
		3612 
	}
	manpower=47753
	buildings_max_level_factor=1.000
	state_category=rural
}
