state={
	id=1044
	name="STATE_1044"
	
	history={
		owner = GEL
		victory_points = {
			2020 2
		}
		
		buildings = {
			infrastructure = 2

		}
		add_core_of = SOM
		add_core_of = GEL
	}
	
	provinces={
		2020 13421 
	}
	manpower=1771636
	buildings_max_level_factor=1.000
	state_category=rural
}
