state={
	id=1049
	name="STATE_1049"
	
	history={
		owner = ITA
		victory_points = {
		    13440 2
		}
		victory_points = {
		    12723 1
		}
		1942.11.22 = {
			owner = ITA
			controller = ENG

		}
		1944.6.20 = {
			owner = ENG
			controller = ENG

		}
		1953.3.7 = {
			owner = ETH
			controller = ETH

		}
		2000.1.1 = {
			owner = ERI
			controller = ERI

		}
		buildings = {
			infrastructure = 3

		}
	    add_core_of = ERI

	}
	
	provinces={
		5017 12723 13440 13441 
	}
	manpower=1103742
	buildings_max_level_factor=1.000
	state_category=rural
}
