state={
	id=1073
	name="STATE_1073"
	
	history={
		owner = SAU
		victory_points = {
			5006 1
		}
		buildings = {
			infrastructure = 1

		}
		add_core_of = SAU
		add_core_of = JAB
	}
	
	provinces={
		5006 8030 13561 
	}
	manpower=505652
	buildings_max_level_factor=1.000
	state_category=wasteland
}
