state={
	id=1079
	name="STATE_1079"
	
	history={
		owner = JAB
		victory_points = {
			13587 3
		}
		victory_points = {
			13581 2
		}
		buildings = {
			infrastructure = 3

		}
		add_core_of = SAU	
		add_core_of = JAB

	}
	
	provinces={
		2057 4968 5027 5099 7934 10892 10923 12758 13581 13582 13584 13587 
	}
	manpower=1200000
	buildings_max_level_factor=1.000
	state_category=rural
}
