
state={
	id=1098
	name="STATE_1098"
	
	history={
		owner = BUL
		victory_points = {
			3796 2
		}
		buildings = {
			infrastructure = 3
			industrial_complex = 2
		}
		add_core_of = BUL
	}
	
	provinces={
		793 965 3796 3819 3952 6842 9610 9771 11754 
	}
	manpower=269752
	buildings_max_level_factor=1.000
	state_category=town
}
