
state={
	id=1101
	name="STATE_1101"

	history={
		owner = SWE
		victory_points = {
			9154 1 
		}
		buildings = {
			infrastructure = 3

		}
		add_core_of = SWE

	}

	provinces={
		46 113 168 202 3039 3108 3111 3162 3191 6010 6123 6126 6129 6185 6207 9066 9068 9148 9154 9171 9229 11049 11052 11116 11148 11187 13117 13611 
	}
	manpower=117068
	buildings_max_level_factor=1.000
	state_category=pastoral
}
