state={
	id=1113
	name="STATE_1113"
	
	history={
		owner = GRE
		buildings = {
			infrastructure = 3

		}
		add_core_of = GRE
		1941.6.22 = {
			controller = ITA

		}
		1944.6.20 = {
			controller = GER
			
		}
		1945.1.1 = {
			controller = GRE

		}

	}
	
	provinces={
		1106 10203 
	}
	manpower=207855
	buildings_max_level_factor=1.000
	state_category=small_island
}
