state={
	id=1114
	name="STATE_1114"
	
	history={
		owner = GRE
		victory_points = {
			3973 2 
		}
		victory_points = {
			863 2
		}
		victory_points = {
			11786 1
		}
		buildings = {
			infrastructure = 4
			industrial_complex = 1

		}
		add_core_of = GRE
		1941.6.22 = {
			controller = ITA

		}
		1944.6.20 = {
			controller = GER
			
		}
		1945.1.1 = {
			controller = GRE

		}

	}
	
	provinces={
		863 3973 11786 13642 13643 
	}
	manpower=732762
	buildings_max_level_factor=1.000
	state_category=rural
}
