state={
	id=1118
	name="STATE_1118"
	
	history={
		owner = OTT
		buildings = {
			infrastructure = 2
			13638 = {
				naval_base = 1

			}

		}
		add_core_of = GRE

	}
	
	provinces={
		13638 
	}
	manpower=8312
	buildings_max_level_factor=1.000
	state_category=tiny_island
}
