state={
	id=1119
	name="STATE_1119"
	
	history={
		owner = SAM
		buildings = {
			infrastructure = 3
			6550 = {
				naval_base = 1

			}

		}
		add_core_of = GRE
		add_core_of = SAM
	}
	
	provinces={
		6550 
	}
	manpower=32977
	buildings_max_level_factor=1.000
	state_category=tiny_island
}
