state={
	id=1120
	name="STATE_1120"
	
	history={
		owner = GER
		buildings = {
			infrastructure = 3

		}
		add_core_of = GER
		1946.1.1 = {
			owner = POL
			controller = POL
			add_core_of = POL
			remove_core_of = GER
			set_state_name = "Klodzko"

		}

	}
	
	provinces={
		3485 
	}
	manpower=166447
	buildings_max_level_factor=1.000
	state_category=enclave
}
