state={
	id=1121
	name="STATE_1121"
	
	history={
		owner = ENG
		victory_points = {
			2094 2
		}
		victory_points = {
			13652 1
		}
		buildings = {
			infrastructure = 2

		}
		add_core_of = SIE
		1972.1.1 = {
			owner = SIE

		}

	}
	
	provinces={
		2094 13652 13654 
	}
	manpower=1438572
	buildings_max_level_factor=1.000
	state_category=pastoral
}
