state={
	id=1128
	name="STATE_1128"
	
	history={
		owner = HOL
		victory_points = {
			11562 3 
		}
		buildings = {
			infrastructure = 5
			industrial_complex = 1

		}
		add_core_of = HOL
		1940.5.10 = {
			controller = GER

		}
		1945.1.1 = {
			controller = HOL

		}

	}
	
	provinces={
		6500 11562 
	}
	manpower=535405
	buildings_max_level_factor=1.000
	state_category=rural
}
