
state={
	id=1135
	name="STATE_1135"

	history={
		owner = FIN
		victory_points = {
			9056 2
		}
		buildings = {
			infrastructure = 4

		}
		add_core_of = FIN

	}

	provinces={
		3119 6141 6163 9056 9160 9166 9219 11033 11144 13103 13106 13113 
	}
	manpower=275320
	buildings_max_level_factor=1.000
	state_category=rural
}
