state=
{
	id=118
	name="STATE_118"
	manpower=17000	
	
	state_category = enclave
	history={
		owner = ENG
		victory_points = { 4135 10 }
		buildings = {
			infrastructure = 6
			air_base = 2
			4135 = {
				naval_base = 5
				coastal_bunker = 2
			}
		}
		add_claim_by = SPR
	}
	provinces={
		4135
	}
}
