
state={
	id=1183
	name="STATE_1183"

	history={
		owner = GER
		victory_points = {
			9347 20 
		}
		buildings = {
			infrastructure = 7
			arms_factory = 1
			dockyard = 2
			9347 = {
				naval_base = 5

			}

		}
		add_core_of = GER
		1946.1.1 = {
			owner = ENG
			controller = ENG

		}
		1950.1.1 = {
			owner = FRG

		}

	}

	provinces={
		9347 
	}
	manpower=1822445
	buildings_max_level_factor=1.000
	state_category=city
}
