state={
	id=1188
	name="STATE_1188"
	
	history={
		owner = GER
		victory_points = {
			7978 1
		}
		buildings = {
			infrastructure = 2

		}
		add_core_of = NGA

	}
	
	provinces={
		7978 13781 13783 13785 
	}
	manpower=392854
	buildings_max_level_factor=1.000
	state_category=pastoral
}
