state={
	id=1205
	name="STATE_1205"

	history={
		owner = FRA
		victory_points = {
			2068 1
		}
		victory_points = {
			8058 1
		}
		buildings = {
			infrastructure = 2

		}
		add_core_of = MRT
		1941.6.22 = {
			owner = VIC

		}
		1942.11.22 = {
			owner = FRA

		}
		1972.1.1 = {
			owner = MRT

		}

	}

	provinces={
		2068 4913 5077 8058 10771 13844 13846 13847 13848 
	}
	manpower=325897
	buildings_max_level_factor=1.000
	state_category=pastoral
}
