state={
	id=1214
	name="STATE_1214"

	history={
		owner = FRA
		add_core_of = ALG
		1941.6.22 = {
			owner = VIC

		}
		1942.11.22 = {
			owner = FRA

		}
		1972.1.1 = {
			owner = ALG

		}

	}

	provinces={
		1095 
	}
	manpower=64781
	buildings_max_level_factor=1.000
	state_category=wasteland
	impassable=yes
}
