state={
	id=1224
	name="STATE_1224"

	history={
		owner = NEP
		victory_points = {
			13984 2
		}
		victory_points = {
			7374 1
		}
		buildings = {
			infrastructure = 2
			industrial_complex = 1

		}
		add_core_of = NEP

	}

	provinces={
		4386 7374 10825 10910 13984 13985 13986 
	}
	manpower=492098
	buildings_max_level_factor=1.000
	state_category=rural
}
