state={
	id=1228
	name="STATE_1228"

	history={
		owner = FRA
		add_core_of = LBA

	}

	provinces={
		13990 
	}
	manpower=10000
	buildings_max_level_factor=1.000
	state_category=wasteland
	impassable=yes
}
