state={
	id=1235
	name="STATE_1235"

	history={
		owner = ENG
		victory_points = {
			14032 2
		}
		victory_points = {
			12929 1
		}
		buildings = {
			infrastructure = 2

		}
		add_core_of = UGA
		1972.1.1 = {
			owner = UGA

		}

	}

	provinces={
		7133 8223 12929 14026 14030 14031 14032 14033 
	}
	manpower=501300
	buildings_max_level_factor=1.000
	state_category=rural
}
