state={
	id=1237
	name="STATE_1237"

	history={
		owner = ENG
		victory_points = {
			10761 2
		}
		buildings = {
			infrastructure = 2

		}
		add_core_of = KEN
		1972.1.1 = {
			owner = KEN

		}

	}

	provinces={
		8133 10761 10976 12927 14043 
	}
	manpower=841353
	buildings_max_level_factor=1.000
	state_category=pastoral
}
