state={
	id=1240
	name="STATE_1240"

	history={
		owner = PAN
		victory_points = {
			4611 2
		}
		victory_points = {
			1633 1
		}
		buildings = {
			infrastructure = 3
			industrial_complex = 1
			4611 = {
				naval_base = 1

			}

		}
		add_core_of = PAN

	}

	provinces={
		1633 4611 4624 14044 
	}
	manpower=464038
	buildings_max_level_factor=1.000
	state_category=rural
}
