state={
	id=1248
	name="STATE_1248"

	history={
		owner = ITA
		victory_points = {
			611 1 
		}
		buildings = {
			infrastructure = 3

		}
		add_core_of = ITA
		1944.6.20 = {
			owner = RSI
			controller = RSI

		}
		1946.1.1 = {
			owner = ITA
			controller = ITA

		}

	}

	provinces={
		611 
	}
	manpower=83479	
	buildings_max_level_factor=1.000
	state_category=pastoral
}
