state={
	id=1263
	name="STATE_1263"

	history={
		owner = OTT
		victory_points = {
			11842 3
		}
		victory_points = {
			922 1
		}
		buildings = {
			infrastructure = 3

		}
		add_core_of = OTT

	}

	provinces={
		922 3893 11842 
	}
	manpower=400280
	buildings_max_level_factor=1.000
	state_category=town
}
