state={
	id=1265
	name="STATE_1265"

	history={
		owner = OTT
		victory_points = {
			3879 2
		}
		buildings = {
			infrastructure = 3

		}
		add_core_of = OTT

	}

	provinces={
		849 3879 6895 14116 
	}
	manpower=582567
	buildings_max_level_factor=1.000
	state_category=rural
}
