state={
	id=1297
	name="STATE_1297"

	history={
		owner = INS
		victory_points = {
			7658 2
		}
		buildings = {
			infrastructure = 3
			7658 = {
				naval_base = 1

			}

		}
		add_core_of = INS

	}

	provinces={
		7658 10509 12488 14256 14257 14259 
	}
	manpower=5316320
	buildings_max_level_factor=1.000
	state_category=rural
}
