state={
	id=1307
	name="STATE_1307"

	history={
		owner = FRA
		buildings = {
			14279 = {
				naval_base = 1

			}

		}

	}

	provinces={
		14279 
	}
	manpower=1
	buildings_max_level_factor=1.000
	state_category=tiny_island
}
