state={
	id=1311
	name="STATE_1311"

	history={
		owner = JAP
		buildings = {
			infrastructure = 1
			14283 = {
				naval_base = 1

			}

		}
		add_core_of = JAP
		add_claim_by = CHI
		add_claim_by = PRC
		1946.1.1 = {
			owner = USA

		}
		1980.1.1 = {
			owner = JAP

		}

	}

	provinces={
		14283 
	}
	manpower=1
	buildings_max_level_factor=1.000
	state_category=tiny_island
}
