state={
	id=1317
	name="STATE_1317"

	history={
		owner = NZL
		buildings = {
			infrastructure = 2
			14291 = {
				naval_base = 1

			}

		}
		add_core_of = TOK

	}

	provinces={
		14291 
	}
	manpower=1411
	buildings_max_level_factor=1.000
	state_category=tiny_island
}
