state={
	id=1323
	name="STATE_1323"

	history={
		owner = NZL
		buildings = {
			infrastructure = 1
			14297 = {
				naval_base = 1

			}

		}

	}

	provinces={
		14297 
	}
	manpower=1
	buildings_max_level_factor=1.000
	state_category=tiny_island
}
