
state={
	id=1325
	name="STATE_1325"

	history={
		owner = NZL
		victory_points = {
			14303 1
		}
		buildings = {
			infrastructure = 2
			14303 = {
				naval_base = 1

			}

		}
		add_core_of = CKI

	}

	provinces={
		14303 
	}
	manpower=14799
	buildings_max_level_factor=1.000
	state_category=small_island
}
