state={
	id=1340
	name="STATE_1340"

	history={
		owner = SKK
		victory_points = {
			4435 1
		}
		buildings = {
			infrastructure = 2

		}
		add_core_of = SKK
		1980.1.1 = {
			owner = RAJ
			add_core_of = RAJ

		}

	}

	provinces={
		4435 
	}
	manpower=109808
	buildings_max_level_factor=1.000
	state_category=pastoral
}
