state={
	id=1356
	name="STATE_1356"

	history={
		owner = JAP
		buildings = {
			infrastructure = 2
			14374 = {
				naval_base = 1

			}

		}
		add_core_of = KOR
		add_core_of = PRK
		1946.1.1 = {
			owner = USA

		}
		1950.1.1 = {
			owner = KOR

		}

	}

	provinces={
		14374 
	}
	manpower=10426
	buildings_max_level_factor=1.000
	state_category=tiny_island
}
