
state={
	id=136
	name="STATE_136"
	resources={
		tungsten=4.000
		aluminium=3.000
	}

	history={
		owner = ENG
		victory_points = {
			11136 2
		}
		victory_points = {
			3150 2
		}
		buildings = {
			infrastructure = 6
			dockyard = 2

		}
		add_core_of = ENG
		add_core_of = SCO

	}

	provinces={
		200 3150 9161 11055 11136 11207 
	}
	manpower=745466
	buildings_max_level_factor=1.000
	state_category=town
}
