state={
	id=1361
	name="STATE_1361"

	history={
		owner = RAJ
		buildings = {
			infrastructure = 2

		}
		add_core_of = RAJ
		add_core_of = PAK
		1950.1.1 = {
			owner = PAK
			remove_core_of = RAJ

		}

	}

	provinces={
		14386 14387 14390 
	}
	manpower=5001676
	buildings_max_level_factor=1.000
	state_category=pastoral
}
