state={
	id=1363
	name="STATE_1363"

	history={
		owner = POR
		victory_points = {
			14394 1 
		}
		buildings = {
			infrastructure = 3
			14394 ={
				naval_base = 1

			}

		}
		add_core_of = RAJ
		1972.1.1 = {
			owner = RAJ

		}

	}

	provinces={
		14394 
	}
	manpower=52076
	buildings_max_level_factor=1.000
	state_category=enclave
}
