state={
	id=1381
	name="STATE_1381"

	history={
		owner = COG
		victory_points = {
			12945 2
		}
		victory_points = {
			14442 1
		}
		victory_points = {
			14445 1
		}
		buildings = {
			infrastructure = 3

		}
		add_core_of = COG

	}

	provinces={
		10025 12775 12896 12945 13485 14438 14442 14445 14453 14456 14458 14460 
	}
	manpower=8062463
	buildings_max_level_factor=1.000
	state_category=rural
}
