state={
	id=1391
	name="STATE_1391"

	history={
		owner = BRA
		victory_points = {
			14515 2
		}
		buildings = {
			infrastructure = 2

		}
		add_core_of = BRA

	}

	provinces={
		5214 14511 14512 14515 
	}
	manpower=450479
	buildings_max_level_factor=1.000
	state_category=pastoral
}
