state={
	id=1410
	name="STATE_1410"

	history={
		owner = ENG
		victory_points = {
			14572 3
		}
		buildings = {
			infrastructure = 3

		}
		add_core_of = NGA
		1972.1.1 = {
			owner = NGA

		}

	}

	provinces={
		4938 4997 5028 8109 13751 14568 14572 14573 14574 
	}
	manpower=4171104
	buildings_max_level_factor=1.000
	state_category=rural
}
