state={
	id=1412
	name="STATE_1412"

	history={
		owner = ENG
		victory_points = {
			14567 5
		}
		victory_points = {
			14566 3
		}
		buildings = {
			infrastructure = 3

		}
		add_core_of = NGA
		1972.1.1 = {
			owner = NGA

		}

	}

	provinces={
		1969 4972 14564 14566 14567 
	}
	manpower=9401288
	buildings_max_level_factor=1.000
	state_category=rural
}
