
state={
	id=1413
	name="STATE_1413"

	history={
		owner = ENG
		victory_points = {
			10820 2 
		}
		victory_points = {
			14557 1 
		}
		buildings = {
			infrastructure = 3

		}
		add_core_of = NGA
		1972.1.1 = {
			owner = NGA

		}

	}

	provinces={
		1992 4889 8021 10820 14556 14557 14560 14563 
	}
	manpower=3178950
	buildings_max_level_factor=1.000
	state_category=rural
}
