state={
	id=1433
	name="STATE_1433"

	history={
		owner = ETH
		buildings = {
			infrastructure = 2

		}
		add_core_of = ETH
		1939.9.1 = {
			owner = ITA

		}
		1942.11.22 = {
			owner = ETH

		}

	}

	provinces={
		14609 
	}
	manpower=1138440
	buildings_max_level_factor=1.000
	state_category=pastoral
}
