state={
	id=1454
	name="STATE_1454"

	history={
		owner = PHI
		victory_points = {
			10302 2
		}
		buildings = {
			infrastructure = 3

		}
		add_core_of = PHI
		1942.11.22 = {
			controller = JAP

		}
		1946.1.1 = {
			controller = PHI

		}

	}

	provinces={
		1368 7423 10302 
	}
	manpower=1936423
	buildings_max_level_factor=1.000
	state_category=rural
}
