
state={
	id=146
	name="STATE_146"

	history={
		owner = FIN
		victory_points = {
			9206 2
		}
		victory_points = {
			3187 1
		}
		buildings = {
			infrastructure = 5
			industrial_complex = 2
			9100 = {
				bunker = 2

			}
			9105 = {
				bunker = 2

			}
			9206 = {
				coastal_bunker = 1

			}

		}
		add_core_of = FIN
		1940.5.10 = {
			owner = RUS
			controller = RUS
			add_core_of = RUS
			remove_core_of = FIN
			set_province_name = { id = 9206 name = Vyborg }

		}
		1942.11.22 = {
			controller = FIN

		}
		1944.6.20 = {
			RUS = {
				set_province_controller = 9150
				set_province_controller = 9100

			}

		}
		1945.1.1 = {
			controller = RUS

		}

	}

	provinces={
		3050 3133 3187 6052 6150 6153 8103 9100 9105 9150 9176 9206 11046 11156 11162 
	}
	manpower=418635
	buildings_max_level_factor=1.000
	state_category=town
}
