state={
	id=1461
	name="STATE_1461"

	history={
		owner = RUS
		victory_points = {
			11068 1
		}
		buildings = {
			infrastructure = 4

		}
		add_core_of = RUS
		1942.11.21 = {
			controller = GER

		}
		1943.7.26 = {
			controller = SOV

		}

	}

	provinces={
		9164 9197 11068 
	}
	manpower=62533
	buildings_max_level_factor=1.000
	state_category=pastoral
}
