
state={
	id=1463
	name="STATE_1463"

	history={
		owner = SWE
		victory_points = {
			9393 2 
		}
		victory_points = {
			11380 2 
		}
		victory_points = {
			6397 1 
		}
		buildings = {
			infrastructure = 5
			industrial_complex = 1
			11380 = {
				naval_base = 1

			}

		}
		add_core_of = SWE

	}

	provinces={
		6311 6397 9308 9393 11289 11380 14704 
	}
	manpower=316754
	buildings_max_level_factor=1.000
	state_category=rural
}
