state={
	id=1469
	name="STATE_1469"

	history={
		owner = ARG
		victory_points = {
			10964 3
		}
		victory_points = {
			14722 2
		}
		buildings = {
			infrastructure = 3

		}
		add_core_of = ARG

	}

	provinces={
		2136 2158 2179 10964 12928 14714 14716 14717 14718 14719 14722 14724 14740 
	}
	manpower=681055
	buildings_max_level_factor=1.000
	state_category=rural
}
