
state={
	id=147
	name="STATE_147"

	history={
		owner = FIN
		buildings = {
			infrastructure = 2

		}
		add_core_of = FIN
		1940.5.10 = {
			owner = RUS
			controller = RUS
			add_core_of = RUS

		}
		1942.11.22 = {
			controller = FIN
		}
		1945.1.1 = {
			controller = RUS
		}
	}

	provinces={
		197 9158 11085 
	}
	manpower=4630
	buildings_max_level_factor=1.000
	state_category=enclave
}
