
state={
	id=156
	name="STATE_156"

	history={
		owner = ITA
		victory_points = {
			12098 5 
		}
		victory_points = {
			9990 4 
		}
		victory_points = {
			6972 3 
		}
		buildings = {
			infrastructure = 4
			dockyard = 1

		}
		add_core_of = ITA

	}

	provinces={
		3901 9990 10027 12066 12098 
	}
	manpower=2237000
	buildings_max_level_factor=1.000
	state_category=rural
}
