
state={
	id=177
	name="STATE_177"

	history={
		owner = SPR
		victory_points = {
			9793 3 
		}
		buildings = {
			infrastructure = 6
			air_base = 1
			9793 = {
				naval_base = 2

			}
			7114 = {
				naval_base = 1

			}

		}
		add_core_of = SPR
		add_core_of = SPA
		1939.9.1 = {
			owner = SPA

		}

	}

	provinces={
		7114 9793 9845 14575 
	}
	manpower=365500
	buildings_max_level_factor=1.000
	state_category=rural
}
