
state={
	id=185
	name="STATE_185"
	resources={
		chromium=20.000
		steel=20.000
	}

	history={
		owner = OTT
		victory_points = {
			3914 2
		}
		buildings = {
			infrastructure = 4
			air_base = 3
			9805 = {
				naval_base = 1

			}

		}
		add_core_of = GRE
		1913.1.1 = {
			owner = GRE
		}

	}

	provinces={
		3914 9805 9916 
	}
	manpower=760900
	buildings_max_level_factor=1.000
	state_category=town
}
