
state={
	id=204
	name="STATE_204"

	history={
		owner = RUS
		victory_points = {
			3350 2
		}
		victory_points = {
			294 2
		}
		buildings = {
			infrastructure = 5

		}
		add_core_of = RUS
		add_core_of = BLR
		1942.11.21 = {
			owner = RUS
			controller = GER

		}
		1944.6.20 = {
			owner = RUS
			controller = GER

		}
		1945.1.1 = {
			owner = RUS
			controller = RUS
		}
		2000.1.1 = {
			owner = BLR

		}

	}

	provinces={
		216 294 304 331 342 386 3350 3378 6292 6373 9289 11322 13739 
	}
	manpower=1041084
	buildings_max_level_factor=1.000
	state_category=rural
}
