
state={
	id=205
	name="STATE_205"

	history={
		owner = RUS
		victory_points = {
			382 3
		}
		victory_points = {
			9301 1
		}
		buildings = {
			infrastructure = 5

		}
		add_core_of = RUS

	}

	provinces={
		246 274 352 382 3263 3308 3345 3377 6252 6365 9261 9301 11235 11284 11300 11369 
	}
	manpower=1121004
	buildings_max_level_factor=1.000
	state_category=town
}
