
state={
	id=237
	name="STATE_237"

	history={
		owner = RUS
		victory_points = {
			11724 2 
		}
		buildings = {
			infrastructure = 2

		}
		add_core_of = RUS
		1942.11.21 = {
			GER = {
				set_province_controller = 11727
				set_province_controller = 6765
				set_province_controller = 3746
				set_province_controller = 9739
				set_province_controller = 6794
				set_province_controller = 11724
				set_province_controller = 745
				set_province_controller = 759
				set_province_controller = 9442
				set_province_controller = 3413
				set_province_controller = 11566
				set_province_controller = 3774
				set_province_controller = 9594
				set_province_controller = 9426
				set_province_controller = 481

			}

		}
		1943.7.26 = {
			controller = SOV

		}

	}

	provinces={
		481 742 745 759 3413 3439 3475 3597 3726 3746 3774 6463 6758 6765 6791 6794 9426 9442 9594 9720 9739 11566 11724 11727 
	}
	manpower=169620
	buildings_max_level_factor=1.000
	state_category=rural
}
