
state={
	id=241
	name="STATE_241"

	history={
		owner = RUS
		victory_points = {
			9288 10 
		}
		buildings = {
			infrastructure = 5
			air_base = 3

		}
		add_core_of = RUS
		add_core_of = BLR
		1942.11.21 = {
			owner = RUS
			controller = GER
		}
		1944.6.20 = {
			owner = RUS
			controller = RUS			
		}
		2000.1.1 = {
			owner = BLR

		}

	}

	provinces={
		9288 9342 13738 
	}
	manpower=943422
	buildings_max_level_factor=1.000
	state_category=rural
}
