
state={
	id=271
	name="STATE_271"
	resources={
		rubber=2.000
	}

	history={
		owner = ETH
		victory_points = {
			13520 5
		}
		buildings = {
			infrastructure = 3
			industrial_complex = 1

		}
		add_core_of = ETH
		1939.9.1 = {
			owner = ITA

		}
		1942.11.22 = {
			owner = ETH

		}

	}

	provinces={
		13520 
	}
	manpower=8643566
	buildings_max_level_factor=1.000
	state_category=town
}
