
state={
	id=273
	name="STATE_273"

	history={
		owner = OTT
		add_core_of = LBA
		add_core_of = OTT
	}

	provinces={
		5004 
	}
	manpower=25000
	buildings_max_level_factor=1.000
	state_category=wasteland
	impassable=yes
}
