
state={
	id=280
	name="STATE_280"

	history={
		owner = BRA
		victory_points = {
			2111 2
		}
		buildings = {
			infrastructure = 1

		}
		add_core_of = BRA

	}

	provinces={
		2111 2142 2147 2204 5148 8175 11010 14489 14491 
	}
	manpower=120000
	buildings_max_level_factor=1.000
	state_category=pastoral
}
