
state={
	id=306
	name="STATE_306"

	history={
		owner = COL
		buildings = {
			infrastructure = 3
			arms_factory = 1
			industrial_complex = 5
			air_base = 2

		}
		add_core_of = COL
		victory_points = {
			10747 10 
		}

	}

	provinces={
		2079 7936 7991 7993 10747 10790 10846 
	}
	manpower=4953049
	buildings_max_level_factor=1.000
	state_category=city
}
