
state={
	id=314
	name="STATE_314"
	resources={
		chromium=1.000
	}

	history={
		owner = ELS
		victory_points = {
			12823 2
		}
		buildings = {
			infrastructure = 4
			arms_factory = 1
			industrial_complex = 2
			air_base = 1
			12823 = {
				naval_base = 1

			}

		}
		add_core_of = ELS

	}

	provinces={
		12823 13093 
	}
	manpower=1437611
	buildings_max_level_factor=1.000
	state_category=town
}
