
state={
	id=329
	name="STATE_329"
	resources={
		chromium=2.000
	}

	history={
		owner = RUS
		victory_points = {
			4680 3 
		}
		buildings = {
			infrastructure = 2
			arms_factory = 1
			industrial_complex = 1

		}
		add_core_of = TAN
		add_claim_by = CHI

	}

	provinces={
		1676 1877 4680 7703 7731 7804 7819 10597 10627 10646 12610 12625 
	}
	manpower=85000
	buildings_max_level_factor=1.000
	state_category=rural
}
