
state={
	id=332
	name="STATE_332"

	history={
		owner = NFL
		victory_points = {
			1785 1
		}
		buildings = {
			infrastructure = 1
			12503 = {
				naval_base = 1

			}

		}
		add_core_of = NFL
		1936.1.1 = {
			owner = ENG

		}
		1950.1.1 = {
			owner = CAN
			add_core_of = CAN

		}

	}
	provinces={
		1426 1785 4720 4787 12503 13165 13180 
	}
	manpower=32179
	buildings_max_level_factor=1.000
	state_category=wasteland
}
