
state={
	id=356
	name="STATE_356" # Kastamonu
	manpower = 860589
	state_category = rural

	history={
		owner = OTT
		buildings = {
			infrastructure = 3
			6995 = {
				naval_base = 1
			}
		}
		add_core_of = TUR
		add_core_of = OTT
	}

	provinces={
		979 3967 3982 6920 6938 6978 6995 9844 9871 11839 11897 
	}
}
