
state={
	id=404
	name="STATE_404"

	history={
		owner = RUS
		victory_points = {
			7657 3
		}
		buildings = {
			infrastructure = 1

		}
		add_core_of = KAZ
		2000.1.1 = {
			owner = KAZ

		}

	}

	provinces={
		1143 4227 4300 4303 4374 4488 4581 4636 4638 7243 7486 7597 7600 7657 10353 12329 
	}
	manpower=667036
	buildings_max_level_factor=1.000
	state_category=wasteland
}
