
state={
	id=438
	name="STATE_438"

	history={
		owner = RAJ
		victory_points = {
			12137 1 
		}
		buildings = {
			infrastructure = 5
			industrial_complex = 1

		}

	}

	provinces={
		1377 1983 2005 4045 4299 4410 5040 5055 5086 5096 7064 7334 7938 8082 8114 9951 9973 10332 10751 10794 12137 12777 12786 
	}
	manpower=33491000
	buildings_max_level_factor=1.000
	state_category=rural
}
