
state={
	id=450
	name="STATE_450"

	history={
		owner = OTT
		victory_points = {
			11954 3
		}
		victory_points = {
			1127 2
		}
		buildings = {
			infrastructure = 3
			air_base = 1
			11954 = {
				naval_base = 1

			}

		}
		add_core_of = LBA
		add_core_of = OTT
	}

	provinces={
		1127 1198 4120 10123 11954 
	}
	manpower=82535
	buildings_max_level_factor=1.000
	state_category=enclave
}
