
state={
	id=472
	name="STATE_472"

	history={
		owner = CAN
		victory_points = {
			10527 1
		}
		buildings = {
			infrastructure = 1

		}
		add_core_of = CAN

	}

	provinces={
		4272 7696 7901 8653 10527 10703 13075 13189 14240 14241 14244 
	}
	manpower=5800
	buildings_max_level_factor=1.000
	state_category=wasteland
}
