
state={
	id=481
	name="STATE_481"
	resources={
		steel=3.000
	}

	history={
		owner = MEX
		buildings = {
			infrastructure = 3
			industrial_complex = 1
			8057 = {
				naval_base = 3

			}

		}
		add_core_of = MEX

	}

	provinces={
		1945 4946 7921 8003 8057 10853 10871 10895 12804 
	}
	manpower=1255094
	buildings_max_level_factor=1.000
	state_category=rural
}
