
state={
	id=484
	name="STATE_484"

	history={
		owner = MEX
		victory_points = {
			12461 3
		}
		victory_points = {
			14078 3
		}
		victory_points = {
			1892 2
		}
		buildings = {
			infrastructure = 3
			air_base = 3
			1892 = {
				naval_base = 2

			}

		}
		add_core_of = MEX

	}

	provinces={
		1892 7964 12461 12859 14078 
	}
	manpower=108841
	buildings_max_level_factor=1.000
	state_category=rural
}
