
state={
	id=485
	name="STATE_485"

	history={
		owner = MEX
		buildings = {
			infrastructure = 3
			industrial_complex = 1
			8032 = {
				naval_base = 3

			}

		}
		add_core_of = MEX

	}

	provinces={
		4887 5066 8032 10730 10832 
	}
	manpower=1598311
	buildings_max_level_factor=1.000
	state_category=rural
}
