
state={
	id=491
	name="STATE_491"

	history={
		owner = PRU
		buildings = {
			infrastructure = 3

		}
		add_core_of = PRU

	}

	provinces={
		5162 8213 10970 12869 
	}
	manpower=176626
	buildings_max_level_factor=1.000
	state_category=pastoral
}
