
state={
	id=502
	name="STATE_502"

	history={
		owner = BRA
		victory_points = {
			10447 3 
		}
		buildings = {
			infrastructure = 5
			air_base = 2
			10447 = {
				naval_base = 3

			}

		}
		add_core_of = BRA

	}

	provinces={
		1542 1585 1598 4436 4575 4589 4604 5110 7581 7594 7638 10447 12396 14487 
	}
	manpower=2959600
	buildings_max_level_factor=1.000
	state_category=town
}
