
state={
	id=508
	name="STATE_508"

	history={
		owner = ARG
		victory_points = {
			8216 3
		}
		victory_points = {
			11022 2
		}
		buildings = {
			infrastructure = 3
			industrial_complex = 1

		}
		add_core_of = ARG

	}

	provinces={
		8216 8253 11022 12978 14721 14725 14726 14727 14728 14730 
	}
	manpower=781311
	buildings_max_level_factor=1.000
	state_category=rural
}
