
state={
	id=523
	name="STATE_523"

	history={
		owner = AST
		victory_points = {
			4329 3
		}
		buildings = {
			infrastructure = 3
			air_base = 3
			4329 = {
				naval_base = 3

			}

		}
		add_core_of = PNG

	}

	provinces={
		1222 1242 1283 1310 2129 4289 4317 4329 4346 4635 7305 7333 7349 7362 7378 7409 10147 10231 10248 10260 10954 12107 12123 12135 12484 12995 
	}
	manpower=1077000
	buildings_max_level_factor=1.000
	state_category=rural
}
