
state={
	id=524
	name="STATE_524"

	history={
		owner = JAP
		victory_points = {
			7186 5 
		}
		victory_points = {
			12068 2 
		}
		victory_points = {
			11959 3 
		}
		buildings = {
			infrastructure = 5
			arms_factory = 1
			air_base = 6
			12068 = {
				naval_base = 10

			}

		}
		add_core_of = CHI
		add_core_of = PRC
		1946.1.1 = {
			owner = CHI

		}

	}

	provinces={
		1091 1175 4096 7186 7214 9955 11914 11959 12027 12068 
	}
	manpower=4592537
	buildings_max_level_factor=1.000
	state_category=large_town
}
