
state={
	id=545
	name="STATE_545"
	resources={
		chromium=26.000
	}

	history={
		owner = ENG
		victory_points = {
			5199 5
		}
		victory_points = {
			12504 2
		}
		buildings = {
			infrastructure = 3

		}
		add_core_of = ZAM
		1972.1.1 = {
			owner = ZAM

		}

	}

	provinces={
		5199 12504 14051 14052 14053 
	}
	manpower=1380000
	buildings_max_level_factor=1.000
	state_category=town
}
