
state={
	id=561
	name="STATE_561"

	history={
		owner = RUS
		victory_points = {
			7763 2 
		}
		buildings = {
			infrastructure = 3
			arms_factory = 1

		}
		add_core_of = RUS

	}

	provinces={
		1730 1739 1802 1842 1845 4725 4731 4779 4829 4847 7691 7754 7763 7785 7801 7851 10655 10678 12591 12654 12657 12660 14425 14484 
	}
	manpower=454281
	buildings_max_level_factor=1.000
	state_category=rural
}
