
state={
	id=562
	name="STATE_562"

	history={
		owner = RUS
		victory_points = {
			14395 1
		}
		buildings = {
			infrastructure = 1
			14395 = {
				naval_base = 1

			}

		}
		add_core_of = RUS

	}

	provinces={
		1865 4455 10540 11607 12592 12683 14395 14396 14397 14398 14401 14402 
	}
	manpower=126961
	buildings_max_level_factor=1.000
	state_category=wasteland
}
