
state={
	id=574
	name="STATE_574"

	history={
		owner = RUS
		victory_points = {
			10641 1 
		}
		buildings = {
			infrastructure = 2
			air_base = 1

		}
		add_core_of = RUS

	}

	provinces={
		1722 1745 1748 1795 1819 1852 1878 2853 2877 3184 4006 4229 4726 4752 4798 4821 4855 4878 6211 7746 7765 7817 7844 7889 10589 10608 10641 10667 10701 10714 12549 12565 12611 12623 12634 12694 13061 
	}
	manpower=407866
	buildings_max_level_factor=1.000
	state_category=wasteland
}
