
state={
	id=578
	name="STATE_578"

	history={
		owner = RUS
		buildings = {
			infrastructure = 3

		}
		add_core_of = RUS

	}

	provinces={
		1674 1718 1765 1824 4681 4767 4827 7655 7789 7793 7849 7861 10529 10613 10617 10673 10686 12174 12510 12536 12599 
	}
	manpower=609304
	buildings_max_level_factor=1.000
	state_category=rural
}
