
state={
	id=585
	name="STATE_585"

	history={
		owner = BUK
		victory_points = {
			1573 2
		}
		buildings = {
			infrastructure = 3

		}
		add_core_of = UZB
		add_core_of = BUK

	}

	provinces={
		1532 1554 1573 1623 4499 4618 7501 7507 10420 10470 13360 13362 
	}
	manpower=778121
	buildings_max_level_factor=1.000
	state_category=rural
}
