
state={
	id=588
	name="STATE_588"
	resources={
		chromium=16.000
	}

	history={
		owner = RUS
		victory_points = {
			1864 3
		}
		victory_points = {
			10584 2
		}
		buildings = {
			infrastructure = 3

		}
		add_core_of = KAZ
		2000.1.1 = {
			owner = KAZ

		}

	}

	provinces={
		1668 1749 1818 1864 4674 4867 7784 7890 10218 10290 10584 10610 10653 12427 12564 12594 12635 12662 13151 13197 
	}
	manpower=659223
	buildings_max_level_factor=1.000
	state_category=rural
}
