state= {
	id=593
	name="STATE_593"
	manpower = 11700000
	state_category = town
	resources={
		tungsten=15 # was: 20
		steel= 15 # was: 20
		chromium = 3 # was: 4
	}

	history= {
			owner = GND
			add_core_of = GND
			add_core_of = PRC
			add_core_of = CHI
			
		buildings = {
			infrastructure = 2
			industrial_complex = 1
			9938 = {
				naval_base = 1
				coastal_bunker = 1
				bunker = 1
			}
		}
		victory_points = {
			9938 1 
		}
		victory_points = {
			7108 5 
		}
		
		1938.10.25 = {		
			JAP = {
				set_province_controller = 1202
				set_province_controller = 4050
				set_province_controller = 7108
				set_province_controller = 9938
				set_province_controller = 12095
			} 			
		}
		1946.1.1 = {
			owner = CHI
			controller = CHI
			remove_core_of = GND
		}	
		1950.1.1 = {
			owner = PRC
		}			
	}
	provinces={
		1120 1162 1202 4050 4165 4207 7067 7108 7182 9938 9970 9978 10080 12014 12095 
	}
}
