state={
	id=604
	name="STATE_604"

	history={
		owner = XSM
		add_core_of = XSM
		add_core_of = CHI
		add_core_of = PRC
		victory_points = {
			7940 10 
		}
		buildings = {
			infrastructure = 1
			industrial_complex = 2

		}
		victory_points = {
			4914 1 
		}
		1950.1.1 = {
			owner = PRC
		}
	}

	provinces={
		4914 4964 7940 8018 8037 12899 
	}
	manpower=1196100
	buildings_max_level_factor=1.000
	state_category=rural
}
