
state={
	id=636
	name="STATE_636"

	history={
		owner = ENG
		victory_points = {
			4286 1 
		}
		buildings = {
			infrastructure = 3
			4286 = {
				naval_base = 1

			}

		}
		add_core_of = FIJ
		1972.1.1 = {
			owner = FIJ

		}

	}

	provinces={
		4286 7302 12159 
	}
	manpower=180000
	buildings_max_level_factor=1.000
	state_category=small_island
}
