
state={
	id=646
	name="STATE_646"

	history={
		owner = JAP
		victory_points = {
			13024 1
		}
		buildings = {
			infrastructure = 3
			air_base = 3
			13024 = {
				naval_base = 1

			}

		}
		add_core_of = NMI
		1945.1.1 = {
			controller = USA
			
		}
		1946.1.1 = {
			owner = USA

		}

	}

	provinces={
		3995 13023 13024 
	}
	manpower=21657
	buildings_max_level_factor=1.000
	state_category=small_island
}
