
state={
	id=656
	name="STATE_656"

	history={
		owner = KUW
		victory_points = {
			8085 3
		}
		buildings = {
			infrastructure = 4
			8085 = {
				naval_base = 4

			}

		}
		add_core_of = KUW

	}

	provinces={
		8085 13309 
	}
	manpower=80000
	buildings_max_level_factor=1.000
	state_category=rural
}
