
state={
	id=661
	name="STATE_661"

	history={
		owner = OTT
		buildings = {
			infrastructure = 1

		}
		add_core_of = LBA
		add_core_of = OTT
	}

	provinces={
		1174 4051 4117 4176 7066 7154 10037 10067 11940 12009 13996 13997 13998 14000 
	}
	manpower=17617
	buildings_max_level_factor=1.000
	state_category=wasteland
}
