
state={
	id=680
	name="STATE_680"

	history={
		owner = OTT
		victory_points = {
			2013 3 
		}
		buildings = {
			infrastructure = 2

		}
		add_core_of = SYR
		add_core_of = OTT
	}

	provinces={
		2013 13226 14580 
	}
	manpower=122899
	buildings_max_level_factor=1.000
	state_category=pastoral
}
