
state={
	id=70
	name="STATE_70"
	resources={
		tungsten=1.000
	}

	history={
		owner = AUS
		victory_points = {
			9692 10 
		}
		buildings = {
			infrastructure = 5
			industrial_complex = 2
			air_base = 3
		}
		add_core_of = AUS
		add_core_of = SLO
		add_core_of = HUN
		1939.9.1 = {
			owner = SLO

		}
		1946.1.1 = {
			owner = CZE

		}
		2000.1.1 = {
			owner = SLO
			remove_core_of = CZE

		}

	}

	provinces={
		9692 
	}
	manpower=1230500
	buildings_max_level_factor=1.000
	state_category=town
}
