
state={
	id=700
	name="STATE_700"

	history={
		owner = ENG
		victory_points = {
			2038 3
		}
		buildings = {
			infrastructure = 3
			2038 = {
				naval_base = 3

			}

		}
		add_core_of = SIE
		1972.1.1 = {
			owner = SIE

		}

	}

	provinces={
		2038 13655 13656 
	}
	manpower=1768500
	buildings_max_level_factor=1.000
	state_category=rural
}
