
state={
	id=720
	name="STATE_720"

	history={
		owner = ENG
		victory_points = {
			10995 1
		}
		buildings = {
			infrastructure = 1
			10995 = {
				naval_base = 1

			}

		}
		add_claim_by = ARG

	}

	provinces={
		10995 
	}
	manpower=30
	buildings_max_level_factor=1.000
	state_category=tiny_island
}
