state={
	id=747
	name="STATE_747"
	provinces={
		4559 4937 5009 7965 7976 8126 10413 10863 12789 12898 
	}
	manpower=1000000
	buildings_max_level_factor=1.000
	state_category = pastoral
	history={
		owner = YUN
		add_core_of = YUN
		add_core_of = CHI
		add_core_of = PRC
		victory_points = {
			7965 3 
		}
		buildings = {
			infrastructure = 3
		}
		1946.1.1 = {
			owner = CHI
			remove_core_of = YUN
		}
		1950.1.1 = {
			owner = CHI
			controller = CHI
		}
		1953.1.1 = {
			owner = PRC
			controller = PRC
		}		
	}
}
