
state={
	id=750
	name="STATE_750"

	history = {
	
		owner = CHI
		add_core_of = CHI
		add_core_of = PRC
		add_core_of = HNN
			
		1939.1.1 = {
			buildings = {
				industrial_complex = 2
				infrastructure = 6
				air_base = 3
				arms_factory = 1

			}
		}		
		1950.1.1 = {
			owner = PRC
		}
		buildings = {
			infrastructure = 4
			industrial_complex = 2
			arms_factory = 1
			air_base = 2

		}
		
		victory_points = {
			7101 10 
		}


	}

	provinces={
		7101 7279 7434 10006 
	}
	manpower=8000000
	buildings_max_level_factor=1.000
	state_category=town
}
