
state={
	id=787
	name="STATE_787"

	history={
		owner = FRA
		victory_points = {
			10919 2
		}
		victory_points = {
			12874 1
		}
		buildings = {
			infrastructure = 3
			10919 = {
				naval_base = 1

			}

		}
		add_core_of = BEN
		1941.6.22 = {
			owner = VIC

		}
		1942.11.22 = {
			owner = FRA

		}
		1972.1.1 = {
			owner = BEN

		}
		1980.1.1 = {
			set_state_name = Benin

		}

	}

	provinces={
		10919 12762 12874 13802 13804 
	}
	manpower=1351500
	buildings_max_level_factor=1.000
	state_category=rural
}
