
state={
	id=792
	name="STATE_792"

	history={
		owner = GER
		victory_points = {
			2220 2
		}
		buildings = {
			infrastructure = 2

		}
		add_core_of = BRD

	}

	provinces={
		2220 13887 13888 
	}
	manpower=2115000
	buildings_max_level_factor=1.000
	state_category=rural
}
