
state={
	id=807
	name="STATE_807"

	history={
		owner = GER
		victory_points = {
			6712 2
		}
		buildings = {
			infrastructure = 6
			arms_factory = 2
		}
		add_core_of = GER

	}

	provinces={
		3692 6542 6712 11640 13261 
	}
	manpower=288741
	buildings_max_level_factor=1.000
	state_category=rural
}
