
state={
	id=817
	name="STATE_817"

	history={
		owner = JAP
		victory_points = {
		    1003 3
		}
		buildings = {
			infrastructure = 4

		}
		add_core_of = KOR
		add_core_of = PRK

		1946.1.1 = {
			owner = USA
		}
		1950.1.1 = {
			owner = KOR
		}
		1956.1.1 = {
			owner = PRK
		}
	}

	provinces={
		1003 11915 
	}
	manpower=42000
	buildings_max_level_factor=1.000
	state_category=pastoral
}
