
state={
	id=843
	name="STATE_843"

	impassable = yes
	history={
		owner = LBA
		buildings = {
			infrastructure = 0

		}
		add_core_of = CHA
	}

	provinces={
		4902
	}
	manpower=48563
	buildings_max_level_factor=1.000
	state_category=wasteland
}
