
state={
	id=875
	name="STATE_875"
	resources={
		rubber=2.000
	}

	history={
		owner = ETH
		victory_points = {
			2072 3 
		}
		buildings = {
			infrastructure = 3
			arms_factory = 2
			industrial_complex = 1
			air_base = 1

		}
		add_core_of = ETH
		1939.9.1 = {
			owner = ITA

		}
		1942.11.22 = {
			owner = ETH

		}

	}

	provinces={
		2072 
	}
	manpower=267291
	buildings_max_level_factor=1.000
	state_category=town
}
