
state={
	id=892
	name="STATE_892"

	history={
		owner = RUS
		victory_points = {
			11617 1
		}
		buildings = {
			infrastructure = 2

		}
		add_core_of = RUS
		add_core_of = GEO
		add_core_of = ABK
		2000.1.1 = {
			owner = ABK
			remove_core_of = RUS

		}

	}

	provinces={
		672 11599 11617 11647 
	}
	manpower=62914
	buildings_max_level_factor=1.000
	state_category=pastoral
}
