state={
	id=900
	name="STATE_900"
	
	history={
		owner = OTT
		buildings = {
			infrastructure = 3
			arms_factory = 1
		}
		add_core_of = GRE
		add_claim_by = BUL
		1913.1.1 = {
			owner = GRE
		}
	}
	
	provinces={
		895 3526 3936 
	}
	manpower=105908
	buildings_max_level_factor=1.000
	state_category=rural
}
