
state={
	id=907
	name="STATE_907"

	history={
		owner = MON
		victory_points = {
			12579 1 
		}
		buildings = {
			infrastructure = 2
			industrial_complex = 1

		}
		add_core_of = MON
		add_claim_by = CHI

	}

	provinces={
		1791 1834 4882 12579 12649 13940 13949 13952 13953 14409 
	}
	manpower=31300
	buildings_max_level_factor=1.000
	state_category=town
}
