
state={
	id=914
	name="STATE_914"

	history={
		owner = MON
		victory_points = {
			13901 1
		}
		victory_points = {
			12669 1
		}	
		buildings = {
			infrastructure = 2

		}
		add_core_of = MON
		add_claim_by = CHI

	}

	provinces={
		1723 1787 1853 4729 4786 4856 10558 10632 10689 10704 12539 12612 12669 12686 13895 13896 13899 13900 13901 13902 13904 13907 13908 
	}
	manpower=38030
	buildings_max_level_factor=1.000
	state_category=town
}
