state={
	id=931
	name="STATE_931"
	
	history={
		owner = ENG
		victory_points = {
			13009 1
		}
		buildings = {
			infrastructure = 3
			13009 = {
				naval_base = 1

			}

		}
	    add_core_of = STL
		1980.1.1 = {
			owner = STL

		}

	}
	
	provinces={
		13009 
	}
	manpower=82782
	buildings_max_level_factor=1.000
	state_category=tiny_island
}
