state={
	id=933
	name="STATE_933"
	
	history={
		owner = ENG
		victory_points = {
			7216 1
		}
		buildings = {
			infrastructure = 3
			7216 = {
				naval_base = 1

			}

		}
		add_core_of = ANT
		1991.1.1 = {
			owner = ANT

		}

	}
	
	provinces={
		7216 
	}
	manpower=35300
	buildings_max_level_factor=1.000
	state_category=tiny_island
}
