state={
	id=937
	name="STATE_937"
	
	history={
		owner = ENG
		buildings = {
			infrastructure = 3
			12816 = {
				naval_base = 1

			}

		}
		add_core_of = AGU

	}
	
	provinces={
		12816 
	}
	manpower=5118
	buildings_max_level_factor=1.000
	state_category=tiny_island
}
