
state={
	id=938
	name="STATE_938"

	history={
		owner = RUS
		victory_points = {
			7425 3
		}
		victory_points = {
			10220 2
		}
		buildings = {
			infrastructure = 3

		}
		add_core_of = KAZ
		2000.1.1 = {
			owner = KAZ
			set_province_name = { id = 10220 name = "Jezkazgan" }

		}

	}

	provinces={
		1239 1243 1287 1312 1382 1402 4232 4250 4277 4333 4389 4595 7332 7335 7350 7392 7405 7407 7425 10161 10179 10220 10268 10275 10277 10292 10452 12111 12121 12152 12177 12194 12471 14195 
	}
	manpower=334315
	buildings_max_level_factor=1.000
	state_category=pastoral
}
