state={
	id=959
	name="STATE_959"
	
	history={
		owner = EGY
		victory_points = {
			1155 2
		}
		buildings = {
			infrastructure = 2
			1155 = {
				naval_base = 2

			}

		}
		add_core_of = EGY
		add_claim_by = OTT


	}
	
	provinces={
		1155 9947 
	}
	manpower=192000
	buildings_max_level_factor=1.000
	state_category=wasteland
}
