
state={
	id=991
	name="STATE_991"

	history={
		owner = SIA
		victory_points = {
			10371 3 
		}
		buildings = {
			infrastructure = 3
			arms_factory = 1

		}
		add_core_of = SIA

	}

	provinces={
		1253 1488 1990 4496 7492 7531 7675 8045 10371 
	}
	manpower=1366200
	buildings_max_level_factor=1.000
	state_category=rural
}
