
state={
	id=992
	name="STATE_992"

	history={
		owner = SIA
		buildings = {
			infrastructure = 3
			arms_factory = 1
			industrial_complex = 1

		}
		add_core_of = SIA

	}

	provinces={
		4319 4348 4388 4392 4566 7312 7559 7587 10193 12122 12220 
	}
	manpower=1882500
	buildings_max_level_factor=1.000
	state_category=rural
}
