state={
	id=996
	name="STATE_996"
	
	history={
		owner = VIN
		victory_points = {
		    12319 2
		}
		victory_points = {
		    4529 1
		}
		buildings = {
			infrastructure = 2

		}
		add_core_of = VIN
		1942.11.22 = {
			owner = JAP

		}
		1946.1.1 = {
			owner = VIN
			add_core_of = VIE

		}
		1950.1.1 = {
			owner = VIE

		}
		1980.1.1 = {
			remove_core_of = VIN

		}

	}
	
	provinces={
		4529 10075 10103 12075 12319 
	}
	manpower=567000
	buildings_max_level_factor=1.000
	state_category=rural
}
